,0
0,17.00707586163801
1,17.026944534675284
2,15.343336149184362
3,12.779528837587678
4,12.231039169909536
5,15.268181905234213
6,12.635804437311107
7,14.37393104945341
8,14.44937673784633
9,17.006482588591382
