,0,1,2,3,4,5,6,7,8,9
0,"[[ 0.02497452 -0.04698309  0.03110934  0.01428587], 1, [ 0.02403486  0.14767922  0.03139506 -0.26842165], 1.8410577989186676, False]","[[ 0.02403486  0.14767922  0.03139506 -0.26842165], 1, [ 0.02698844  0.3423394   0.02602662 -0.5510394 ], 1.8400851277161516, False]","[[ 0.02698844  0.3423394   0.02602662 -0.5510394 ], 1, [ 0.03383523  0.5370863   0.01500583 -0.8354099 ], 1.8644868509213113, False]","[[ 0.03383523  0.5370863   0.01500583 -0.8354099 ], 1, [ 0.04457696  0.7320001  -0.00170236 -1.1233361 ], 1.9142544094034957, False]","[[ 0.04457696  0.7320001  -0.00170236 -1.1233361 ], 1, [ 0.05921696  0.92714435 -0.02416909 -1.4165525 ], 1.97329807788102, False]","[[ 0.05921696  0.92714435 -0.02416909 -1.4165525 ], 1, [ 0.07775985  1.1225572  -0.05250014 -1.7166911 ], 1.8599273830937015, False]","[[ 0.07775985  1.1225572  -0.05250014 -1.7166911 ], 1, [ 0.10021099  1.3182404  -0.08683396 -2.0252395 ], 1.7169303780706107, False]","[[ 0.10021099  1.3182404  -0.08683396 -2.0252395 ], 1, [ 0.1265758   1.5141466  -0.12733875 -2.3434887 ], 1.5436437969576557, False]","[[ 0.1265758   1.5141466  -0.12733875 -2.3434887 ], 1, [ 0.15685873  1.7101634  -0.17420852 -2.6724696 ], 1.3392623286942191, False]","[[ 0.15685873  1.7101634  -0.17420852 -2.6724696 ], 1, [ 0.19106199  1.906095   -0.22765791 -3.0128772 ], 1.1028577755421938, True]"
1,"[[-0.02381778 -0.02063929  0.04330218 -0.00359988], 1, [-0.02423057  0.17383575  0.04323018 -0.28231215], 1.7833232515692254, False]","[[-0.02423057  0.17383575  0.04323018 -0.28231215], 1, [-0.02075385  0.36831528  0.03758394 -0.56105316], 1.783495025645725, False]","[[-0.02075385  0.36831528  0.03758394 -0.56105316], 1, [-0.01338755  0.5628902   0.02636287 -0.8416623 ], 1.8119024845789697, False]","[[-0.01338755  0.5628902   0.02636287 -0.8416623 ], 1, [-0.00212975  0.7576425   0.00952963 -1.1259395 ], 1.8685484048123113, False]","[[-0.00212975  0.7576425   0.00952963 -1.1259395 ], 1, [ 0.0130231   0.95263827 -0.01298916 -1.4156182 ], 1.9536119843865372, False]","[[ 0.0130231   0.95263827 -0.01298916 -1.4156182 ], 1, [ 0.03207587  1.1479187  -0.04130153 -1.7123328 ], 1.9325550288859417, False]","[[ 0.03207587  1.1479187  -0.04130153 -1.7123328 ], 1, [ 0.05503425  1.3434898  -0.07554818 -2.0175786 ], 1.7894347926195202, False]","[[ 0.05503425  1.3434898  -0.07554818 -2.0175786 ], 1, [ 0.08190404  1.5393097  -0.11589975 -2.3326607 ], 1.616353078022847, False]","[[ 0.08190404  1.5393097  -0.11589975 -2.3326607 ], 1, [ 0.11269023  1.7352734  -0.16255297 -2.6586323 ], 1.412492777999872, False]","[[ 0.11269023  1.7352734  -0.16255297 -2.6586323 ], 1, [ 0.1473957   1.9311942  -0.21572562 -2.9962199 ], 1.1769124868208676, True]"
2,"[[-0.00865621  0.03360968  0.00687307  0.01696416], 1, [-0.00798402  0.22863239  0.00721236 -0.2735423 ], 1.9635767436347673, False]","[[-0.00798402  0.22863239  0.00721236 -0.2735423 ], 1, [-0.00341137  0.42365068  0.00174151 -0.5639418 ], 1.9622368664772902, False]","[[-0.00341137  0.42365068  0.00174151 -0.5639418 ], 1, [ 0.00506164  0.6187481  -0.00953733 -0.8560755 ], 1.9902635034305138, False]","[[ 0.00506164  0.6187481  -0.00953733 -0.8560755 ], 1, [ 0.01743661  0.81399876 -0.02665884 -1.1517421 ], 1.952353603294124, False]","[[ 0.01743661  0.81399876 -0.02665884 -1.1517421 ], 1, [ 0.03371658  1.0094582  -0.04969368 -1.4526639 ], 1.8654481777770473, False]","[[ 0.03371658  1.0094582  -0.04969368 -1.4526639 ], 1, [ 0.05390574  1.2051541  -0.07874695 -1.7604493 ], 1.7486815914745009, False]","[[ 0.05390574  1.2051541  -0.07874695 -1.7604493 ], 1, [ 0.07800882  1.4010742  -0.11395594 -2.0765464 ], 1.6015502728065405, False]","[[ 0.07800882  1.4010742  -0.11395594 -2.0765464 ], 1, [ 0.10603031  1.5971525  -0.15548687 -2.4021869 ], 1.4233968021068104, False]","[[ 0.10603031  1.5971525  -0.15548687 -2.4021869 ], 1, [ 0.13797335  1.7932526  -0.20353061 -2.7383177 ], 1.213425601856293, False]","[[ 0.13797335  1.7932526  -0.20353061 -2.7383177 ], 1, [ 0.1738384   1.9891492  -0.25829697 -3.0855231 ], 0.9707240251183836, True]"
3,"[[ 0.02211431 -0.03167554  0.03513843 -0.01826592], 1, [ 0.0214808   0.16292533  0.03477311 -0.29965845], 1.8230120677255102, False]","[[ 0.0214808   0.16292533  0.03477311 -0.29965845], 1, [ 0.0247393   0.35753483  0.02877994 -0.58117497], 1.825020290489921, False]","[[ 0.0247393   0.35753483  0.02877994 -0.58117497], 1, [ 0.03189     0.5522419   0.01715644 -0.86465454], 1.8522778529090962, False]","[[ 0.03189     0.5522419   0.01715644 -0.86465454], 1, [ 4.2934839e-02  7.4712616e-01 -1.3664819e-04 -1.1518942e+00], 1.9047965200214025, False]","[[ 4.2934839e-02  7.4712616e-01 -1.3664819e-04 -1.1518942e+00], 1, [ 0.05787736  0.9422499  -0.02317453 -1.44462   ], 1.9814580368431374, False]","[[ 0.05787736  0.9422499  -0.02317453 -1.44462   ], 1, [ 0.07672236  1.1376492  -0.05206693 -1.744453  ], 1.8652341941010113, False]","[[ 0.07672236  1.1376492  -0.05206693 -1.744453  ], 1, [ 0.09947535  1.3333232  -0.08695599 -2.052867  ], 1.719431055027954, False]","[[ 0.09947535  1.3333232  -0.08695599 -2.052867  ], 1, [ 0.12614182  1.5292208  -0.12801333 -2.371136  ], 1.5433676489037484, False]","[[ 0.12614182  1.5292208  -0.12801333 -2.371136  ], 1, [ 0.15672623  1.7252247  -0.17543605 -2.7002692 ], 1.3362222932048222, False]","[[ 0.15672623  1.7252247  -0.17543605 -2.7002692 ], 1, [ 0.19123071  1.9211332  -0.22944143 -3.0409353 ], 1.0970519705585076, True]"
4,"[[-4.6759900e-02 -4.5020249e-02  3.2264635e-02 -8.4385647e-05], 1, [-0.04766031  0.14962448  0.03226295 -0.28241536], 1.826464424195085, False]","[[-0.04766031  0.14962448  0.03226295 -0.28241536], 1, [-0.04466782  0.34427175  0.02661464 -0.5647507 ], 1.826097312354526, False]","[[-0.04466782  0.34427175  0.02661464 -0.5647507 ], 1, [-0.03778238  0.5390104   0.01531963 -0.8489314 ], 1.854312864312142, False]","[[-0.03778238  0.5390104   0.01531963 -0.8489314 ], 1, [-0.02700217  0.7339201  -0.001659   -1.1367579 ], 1.9111115108986656, False]","[[-0.02700217  0.7339201  -0.001659   -1.1367579 ], 1, [-0.01232377  0.92906374 -0.02439416 -1.4299606 ], 1.980827949415567, False]","[[-0.01232377  0.92906374 -0.02439416 -1.4299606 ], 1, [ 0.0062575   1.1244782  -0.05299337 -1.7301663 ], 1.8783915686213106, False]","[[ 0.0062575   1.1244782  -0.05299337 -1.7301663 ], 1, [ 0.02874707  1.3201638  -0.0875967  -2.0388556 ], 1.74436799380697, False]","[[ 0.02874707  1.3201638  -0.0875967  -2.0388556 ], 1, [ 0.05515034  1.5160711  -0.12837382 -2.3573103 ], 1.5697786233023465, False]","[[ 0.05515034  1.5160711  -0.12837382 -2.3573103 ], 1, [ 0.08547176  1.7120848  -0.17552002 -2.68655   ], 1.3640808652880614, False]","[[ 0.08547176  1.7120848  -0.17552002 -2.68655   ], 1, [ 0.11971346  1.9080058  -0.22925101 -3.0272546 ], 1.1263404118520002, True]"
5,"[[ 0.02990497 -0.03593206 -0.04251945 -0.04137045], 1, [ 0.02918633  0.159773   -0.04334686 -0.34715968], 1.7845241945502304, False]","[[ 0.02918633  0.159773   -0.04334686 -0.34715968], 1, [ 0.03238178  0.35548386 -0.05029005 -0.6531902 ], 1.780873040197092, False]","[[ 0.03238178  0.35548386 -0.05029005 -0.6531902 ], 1, [ 0.03949146  0.5512687  -0.06335385 -0.9612752 ], 1.7463902975184995, False]","[[ 0.03949146  0.5512687  -0.06335385 -0.9612752 ], 1, [ 0.05051683  0.74718225 -0.08257936 -1.2731696 ], 1.6810528665076712, False]","[[ 0.05051683  0.74718225 -0.08257936 -1.2731696 ], 1, [ 0.06546048  0.94325507 -0.10804275 -1.5905274 ], 1.584663922307322, False]","[[ 0.06546048  0.94325507 -0.10804275 -1.5905274 ], 1, [ 0.08432558  1.1394814  -0.1398533  -1.9148535 ], 1.4568586476448777, False]","[[ 0.08432558  1.1394814  -0.1398533  -1.9148535 ], 1, [ 0.10711521  1.3358052  -0.17815037 -2.247447  ], 1.2971140272183161, False]","[[ 0.10711521  1.3358052  -0.17815037 -2.247447  ], 1, [ 0.1338313  1.532104  -0.2230993 -2.5893347], 1.1047632994757457, True]",,
6,"[[-0.01970167 -0.01646322 -0.02179708 -0.01525711], 1, [-0.02003093  0.17896444 -0.02210222 -0.31473678], 1.8877175831636377, False]","[[-0.02003093  0.17896444 -0.02210222 -0.31473678], 1, [-0.01645164  0.37439415 -0.02839696 -0.6143073 ], 1.8861234430947937, False]","[[-0.01645164  0.37439415 -0.02839696 -0.6143073 ], 1, [-0.00896376  0.56990117 -0.0406831  -0.9157971 ], 1.8575596687435643, False]","[[-0.00896376  0.56990117 -0.0406831  -0.9157971 ], 1, [ 0.00243426  0.76554894 -0.05899904 -1.2209835 ], 1.8020175975401775, False]","[[ 0.00243426  0.76554894 -0.05899904 -1.2209835 ], 1, [ 0.01774524  0.96137947 -0.08341871 -1.5315539 ], 1.7172860434316803, False]","[[ 0.01774524  0.96137947 -0.08341871 -1.5315539 ], 1, [ 0.03697283  1.1574019  -0.11404979 -1.8490618 ], 1.5943111376595136, False]","[[ 0.03697283  1.1574019  -0.11404979 -1.8490618 ], 1, [ 0.06012087  1.3535799  -0.15103103 -2.174875  ], 1.4400470073150933, False]","[[ 0.06012087  1.3535799  -0.15103103 -2.174875  ], 1, [ 0.08719247  1.5498157  -0.19452854 -2.5101125 ], 1.2538295776692334, False]","[[ 0.08719247  1.5498157  -0.19452854 -2.5101125 ], 1, [ 0.11818878  1.7459332  -0.24473079 -2.8555717 ], 1.0348644672856855, True]",
7,"[[-0.02181591 -0.0091386  -0.01928796 -0.02795923], 1, [-0.02199868  0.18625456 -0.01984715 -0.32666478], 1.8988168104945997, False]","[[-0.02199868  0.18625456 -0.01984715 -0.32666478], 1, [-0.01827359  0.38165337 -0.02638044 -0.62553996], 1.8960707451971839, False]","[[-0.01827359  0.38165337 -0.02638044 -0.62553996], 1, [-0.01064052  0.5771335  -0.03889124 -0.926413  ], 1.8664286810277932, False]","[[-0.01064052  0.5771335  -0.03889124 -0.926413  ], 1, [ 9.0214895e-04  7.7275842e-01 -5.7419501e-02 -1.2310597e+00], 1.8098744525228556, False]","[[ 9.0214895e-04  7.7275842e-01 -5.7419501e-02 -1.2310597e+00], 1, [ 0.01635732  0.96857    -0.0820407  -1.541165  ], 1.7254661810123506, False]","[[ 0.01635732  0.96857    -0.0820407  -1.541165  ], 1, [ 0.03572872  1.164577   -0.112864   -1.8582796 ], 1.6014689755409486, False]","[[ 0.03572872  1.164577   -0.112864   -1.8582796 ], 1, [ 0.05902026  1.3607423  -0.15002958 -2.183767  ], 1.4462271520301568, False]","[[ 0.05902026  1.3607423  -0.15002958 -2.183767  ], 1, [ 0.08623511  1.5569676  -0.19370493 -2.518742  ], 1.2590697248674192, False]","[[ 0.08623511  1.5569676  -0.19370493 -2.518742  ], 1, [ 0.11737446  1.7530755  -0.24407977 -2.8639963 ], 1.039195778533267, True]",
8,"[[-0.02465484  0.04319073 -0.04287506  0.01625774], 1, [-0.02379103  0.2389005  -0.0425499  -0.28963852], 1.7850138209974227, False]","[[-0.02379103  0.2389005  -0.0425499  -0.28963852], 1, [-0.01901302  0.43460256 -0.04834267 -0.5954318 ], 1.786926242241073, False]","[[-0.01901302  0.43460256 -0.04834267 -0.5954318 ], 1, [-0.01032097  0.63036656 -0.06025131 -0.902942  ], 1.7612586381180946, False]","[[-0.01032097  0.63036656 -0.06025131 -0.902942  ], 1, [ 0.00228636  0.8262507  -0.07831015 -1.2139381 ], 1.708020780007841, False]","[[ 0.00228636  0.8262507  -0.07831015 -1.2139381 ], 1, [ 0.01881138  1.0222908  -0.10258891 -1.5300969 ], 1.6251439392517022, False]","[[ 0.01881138  1.0222908  -0.10258891 -1.5300969 ], 1, [ 0.03925719  1.2184893  -0.13319084 -1.8529556 ], 1.5023359772373557, False]","[[ 0.03925719  1.2184893  -0.13319084 -1.8529556 ], 1, [ 0.06362698  1.4148008  -0.17024995 -2.1838572 ], 1.3477034163588404, False]","[[ 0.06362698  1.4148008  -0.17024995 -2.1838572 ], 1, [ 0.091923   1.6111168 -0.2139271 -2.523886 ], 1.160605105818549, True]",,
9,"[[-0.0184073  -0.03665657  0.03613635 -0.01655942], 1, [-0.01914043  0.15792902  0.03580516 -0.29762545], 1.8197919395107083, False]","[[-0.01914043  0.15792902  0.03580516 -0.29762545], 1, [-0.01598185  0.35252276  0.02985265 -0.5788045 ], 1.8210677813360554, False]","[[-0.01598185  0.35252276  0.02985265 -0.5788045 ], 1, [-0.0089314   0.5472139   0.01827656 -0.86193573], 1.850804994057246, False]","[[-0.0089314   0.5472139   0.01827656 -0.86193573], 1, [ 2.0128808e-03  7.4208230e-01  1.0378445e-03 -1.1488165e+00], 1.9090144422624524, False]","[[ 2.0128808e-03  7.4208230e-01  1.0378445e-03 -1.1488165e+00], 1, [ 0.01685453  0.9371907  -0.02193848 -1.4411738 ], 1.9942059574232398, False]","[[ 0.01685453  0.9371907  -0.02193848 -1.4411738 ], 1, [ 0.03559834  1.1325759  -0.05076196 -1.7406304 ], 1.8882287346851796, False]","[[ 0.03559834  1.1325759  -0.05076196 -1.7406304 ], 1, [ 0.05824986  1.3282378  -0.08557457 -2.0486627 ], 1.7427968499757012, False]","[[ 0.05824986  1.3282378  -0.08557457 -2.0486627 ], 1, [ 0.08481462  1.5241263  -0.12654781 -2.3665485 ], 1.5671407643866, False]","[[ 0.08481462  1.5241263  -0.12654781 -2.3665485 ], 1, [ 0.11529714  1.7201258  -0.17387879 -2.6953027 ], 1.3604392755785817, False]","[[ 0.11529714  1.7201258  -0.17387879 -2.6953027 ], 1, [ 0.14969966  1.9160362  -0.22778484 -3.0356004 ], 1.1217494627479574, True]"
