,0
0,19.845386670641158
1,32.08796188468719
2,35.86385778681272
3,28.377419320108597
4,21.93143723798772
5,23.55987506653965
6,26.802072312416964
7,18.43130873399297
8,17.907750066816813
9,27.183912482882757
10,35.985728747510855
11,17.754069873974256
12,19.6737285548885
13,22.21852575770919
14,25.222925684795182
15,31.612621722636728
16,35.5751150509438
17,19.237475679920053
18,16.706886796623937
19,35.27338844610715
20,13.29094090251439
21,21.3033562522861
22,21.78455571432371
23,21.925060566933485
24,48.12746332066821
25,24.33441257833791
26,29.51673261204366
27,20.61440494949396
28,15.312536768923625
29,25.582881187511962
30,16.25275784475504
31,49.677039297469605
32,31.133256581662856
33,15.276204185673999
34,33.32273170059928
35,21.582034519610513
36,37.38556086699316
37,25.38872600300327
38,19.582883880771266
39,19.355638080994506
40,36.38665094653262
41,18.354265489835704
42,37.51207712671954
43,23.652107055636918
44,28.264939519821812
45,20.859030602862155
46,18.3990352155945
47,21.865621169635872
48,17.896348590351867
49,29.0124531694867
50,20.197086051056925
51,13.589375488049166
52,17.22641874958882
53,16.02640792996998
54,35.6726755579415
55,20.47415059612941
56,14.21153455360156
57,14.04488091495924
58,20.950637910866607
59,19.010648465227465
60,27.33555752128299
61,20.764011561859803
62,18.106994672446792
63,18.404721281609795
64,22.399986939707976
65,16.714108958806616
66,17.428309159670352
67,24.331092441080393
68,16.952958805816543
69,15.123439449300745
70,14.187429896013901
71,13.024899663842021
72,21.469855236411686
73,18.402177299689424
74,16.150362288881222
75,29.87785122168267
76,17.01171267322545
77,14.366673840847973
78,15.588840252986081
79,21.890346710595676
80,29.585196382189856
81,20.471791911659107
82,13.723480265510892
83,16.95947403325649
84,14.498550945350814
85,21.836085541460996
86,12.713015953624456
87,17.12171876531366
88,16.48434829208577
89,18.814173656988835
90,15.367549090416261
91,19.725847670020553
92,20.012353685362715
93,17.183537182391273
94,15.970319057775427
95,16.9959220098468
96,21.208753138863546
97,22.302566123501638
98,14.618608426098465
99,13.92239749695118
