,0
0,40.74745082835328
1,26.43910409186817
2,16.63237594736016
3,42.914457660388635
4,25.86474975286678
5,28.00086005182322
6,44.425639138813985
7,35.73270476240785
8,35.85061314173417
9,43.04777659823711
10,33.547655495806765
11,31.822406741507564
12,120.2663949019827
13,16.5018999724014
14,24.378998024014358
15,31.367740413017803
16,24.958279850727283
17,17.024148933003314
18,30.953728275013262
19,14.085205033882
20,23.50884378897493
21,33.697431539035094
22,23.43986415204838
23,16.91220237227701
24,25.34993845651475
25,36.846483051560206
26,24.613271167087838
27,23.55135589286897
28,16.563977794048405
29,19.759023657414122
30,21.616453370511827
31,14.296323380143832
32,26.07201638784833
33,12.357992453139271
34,39.012205978716395
35,13.840265749332584
36,36.68031039550759
37,19.336039248102114
38,17.662012023222186
39,22.90937330747543
40,25.081404383502456
41,18.561005088005786
42,22.837000638111522
43,15.955292796859663
44,15.467837746561804
45,28.62110156142808
46,24.690908264812297
47,27.261001458446188
48,21.780978653578305
49,18.030374639602158
50,17.158577692720748
51,20.271631384253784
52,16.58633807476888
53,13.967897849619526
54,32.74297287178437
55,18.28007499706346
56,17.036850647407864
57,14.09251449726001
58,19.33965045661079
59,18.18954861872835
60,17.430437059665675
61,20.120466375195
62,37.46284623086881
63,38.483031710883395
64,20.688781176302435
65,14.346930976226803
66,14.374726682260118
67,14.126150210820521
68,17.272351603089596
69,18.133824969370327
70,21.532747157508012
71,23.853681126776646
72,15.871057946168868
73,16.36341833328166
74,16.51284235075962
75,17.025810959667698
76,20.989114403039167
77,17.531298625139353
78,15.556774898627628
79,16.4062263419865
80,15.298143848195364
81,16.36036606677381
82,20.211922200583917
83,17.062012026417985
84,15.330850783606163
85,20.162078513043216
86,18.30113681482291
87,15.327600734461944
88,16.39070708708114
89,15.540124764879224
90,16.68810282664648
91,16.732916201264548
92,15.485640094021102
93,15.021084421620868
94,12.836497883300714
95,14.347247551123274
96,18.6799051426404
97,16.927491217246267
98,16.508512364973548
99,16.87149533923337
