,0
0,18.8663868294469
1,24.39328172992686
2,54.418136385836256
3,185.3460148644887
4,45.49032453216622
5,27.450862873309863
6,27.536789665582354
7,29.791287004627257
8,24.85254108630445
9,15.370421012152995
10,28.240775133902027
11,20.033111242583143
12,35.00120717412306
13,37.74766893542573
14,20.702529981496916
15,19.910581911558246
16,18.294925862598916
17,38.713648268572264
18,12.679697267065187
19,31.226479123414954
20,26.99954505507961
21,12.61560413489699
22,31.38324971382234
23,36.0679837631103
24,25.20334982953577
25,29.177294152060306
26,29.761490165798175
27,54.30577519879133
28,29.97883744656023
29,18.06311617057997
30,16.61505884813789
31,16.59614792086614
32,25.403123982692705
33,18.596002644483264
34,37.65392620291677
35,19.354299653154595
36,34.30073592382567
37,14.405079451698386
38,16.91865058589796
39,16.94713786437753
40,18.267690730060487
41,32.2580850417916
42,27.4935263992663
43,20.14550578965706
44,15.24681546882147
45,16.593824899414738
46,14.717035211310591
47,13.948215988467132
48,16.84157801188628
49,28.484780273289402
50,30.15578858221285
51,18.35457073833649
52,12.346384784162948
53,16.253353168589754
54,15.72797783221396
55,15.660104135231233
56,20.070721264069395
57,22.375871667759693
58,17.97877113857202
59,23.026124382217493
60,22.606156653017344
61,15.095580121663565
62,18.180188486059308
63,16.68282335451649
64,21.702799777245428
65,16.03340678267614
66,24.474347381165785
67,24.439075226767216
68,18.200377995633573
69,14.344013811970697
70,14.1434713691927
71,17.492986553072335
72,20.502000000902168
73,24.162167952636622
74,20.12001814209767
75,20.541483796723405
76,15.765327958106205
77,17.89541086845974
78,19.80684799785318
79,16.78306000136406
80,16.26493964109043
81,21.644685577182585
82,16.57227565878576
83,15.126415520708877
84,14.148396900428018
85,17.351551591809386
86,17.101119293953563
87,12.576505979694074
88,16.782870554313334
89,21.672039702507313
90,20.35772638558078
91,18.951310077328927
92,16.633564476745303
93,15.540658228874825
94,20.28925009269089
95,20.80061729454651
96,16.739624693505164
97,24.18684812214337
98,14.268649649562356
99,18.082780297001314
