,0
0,14.474657147758839
1,18.088882337349496
2,16.627315501623972
3,17.143935522631164
4,14.310013592485458
5,12.656603266711011
6,12.94259549222006
7,16.605179994173927
8,16.652102932491857
9,16.565842778361997
