,0,1,2,3,4,5,6,7,8,9
0,"[[-3.2225661e-02  4.0839674e-05 -6.8890969e-03  4.9787215e-03], 0, [-0.03222485 -0.19498163 -0.00678952  0.29548013], 1.9536796263777894, False]","[[-0.03222485 -0.19498163 -0.00678952  0.29548013], 0, [-0.03612448 -0.39000612 -0.00087992  0.58601403], 1.9541553981695725, False]","[[-0.03612448 -0.39000612 -0.00087992  0.58601403], 0, [-0.0439246  -0.58511573  0.01084036  0.87841964], 1.9807468247945716, False]","[[-0.0439246  -0.58511573  0.01084036  0.87841964], 0, [-0.05562691 -0.7803833   0.02840875  1.1744908 ], 1.9299391722080281, False]","[[-0.05562691 -0.7803833   0.02840875  1.1744908 ], 0, [-0.07123458 -0.9758627   0.05189857  1.4759426 ], 1.841180307474898, False]","[[-0.07123458 -0.9758627   0.05189857  1.4759426 ], 0, [-0.09075183 -1.1715788   0.08141743  1.7843728 ], 1.7225214954661805, False]","[[-0.09075183 -1.1715788   0.08141743  1.7843728 ], 0, [-0.1141834  -1.3675158   0.11710488  2.101215  ], 1.5734471625676452, False]","[[-0.1141834  -1.3675158   0.11710488  2.101215  ], 0, [-0.14153372 -1.5636028   0.15912917  2.427681  ], 1.3932889640445345, False]","[[-0.14153372 -1.5636028   0.15912917  2.427681  ], 0, [-0.17280577 -1.7596972   0.20768279  2.764693  ], 1.1812417855945019, False]","[[-0.17280577 -1.7596972   0.20768279  2.764693  ], 0, [-0.20799972 -1.9555658   0.26297665  3.1128032 ], 0.9363853243846011, True]"
1,"[[-0.00299671 -0.03639654 -0.00583622  0.04405962], 0, [-0.00372464 -0.23143432 -0.00495503  0.33489546], 1.9708854775000102, False]","[[-0.00372464 -0.23143432 -0.00495503  0.33489546], 0, [-0.00835333 -0.4264854   0.00174288  0.6260117 ], 1.9747895561865607, False]","[[-0.00835333 -0.4264854   0.00174288  0.6260117 ], 0, [-0.01688303 -0.6216316   0.01426312  0.91924304], 1.988197796339207, False]","[[-0.01688303 -0.6216316   0.01426312  0.91924304], 0, [-0.02931567 -0.8169434   0.03264798  1.2163742 ], 1.9248640363303477, False]","[[-0.02931567 -0.8169434   0.03264798  1.2163742 ], 0, [-0.04565454 -1.0124708   0.05697546  1.5191059 ], 1.8319025237795543, False]","[[-0.04565454 -1.0124708   0.05697546  1.5191059 ], 0, [-0.06590395 -1.2082335   0.08735758  1.8290151 ], 1.7089394867775691, False]","[[-0.06590395 -1.2082335   0.08735758  1.8290151 ], 0, [-0.09006862 -1.404208    0.12393788  2.1475065 ], 1.5554382957139354, False]","[[-0.09006862 -1.404208    0.12393788  2.1475065 ], 0, [-0.11815278 -1.6003137   0.16688801  2.4757533 ], 1.3707116079014605, False]","[[-0.11815278 -1.6003137   0.16688801  2.4757533 ], 0, [-0.15015906 -1.7963955   0.21640308  2.8146274 ], 1.1539381053790634, True]",
2,"[[ 0.02783995  0.0357113  -0.0234133  -0.03841915], 0, [ 0.02855418 -0.15906721 -0.02418168  0.24678567], 1.8766097612328945, False]","[[ 0.02855418 -0.15906721 -0.02418168  0.24678567], 0, [ 0.02537284 -0.3538356  -0.01924597  0.5317441 ], 1.872643412900806, False]","[[ 0.02537284 -0.3538356  -0.01924597  0.5317441 ], 0, [ 0.01829612 -0.5486816  -0.00861108  0.8183011 ], 1.8975352688225149, False]","[[ 0.01829612 -0.5486816  -0.00861108  0.8183011 ], 0, [ 0.00732249 -0.74368465  0.00775494  1.1082631 ], 1.9512617219363402, False]","[[ 0.00732249 -0.74368465  0.00775494  1.1082631 ], 0, [-0.0075512 -0.9389077  0.0299202  1.4033688], 1.9599218569198396, False]","[[-0.0075512 -0.9389077  0.0299202  1.4033688], 0, [-0.02632935 -1.1343882   0.05798758  1.7052536 ], 1.8539952261821084, False]","[[-0.02632935 -1.1343882   0.05798758  1.7052536 ], 0, [-0.04901712 -1.3301274   0.09209265  2.0154078 ], 1.7121591447449482, False]","[[-0.04901712 -1.3301274   0.09209265  2.0154078 ], 0, [-0.07561966 -1.5260769   0.13240081  2.3351235 ], 1.5398661962307054, False]","[[-0.07561966 -1.5260769   0.13240081  2.3351235 ], 0, [-0.1061412  -1.7221233   0.17910329  2.6654315 ], 1.3363245033439919, False]","[[-0.1061412  -1.7221233   0.17910329  2.6654315 ], 0, [-0.14058366 -1.9180695   0.23241192  3.0070245 ], 1.1006193047965902, True]"
3,"[[-0.03124593  0.03641186 -0.002153   -0.0022905 ], 0, [-0.03051769 -0.15867914 -0.00219881  0.28971234], 1.9767010419944864, False]","[[-0.03051769 -0.15867914 -0.00219881  0.28971234], 0, [-0.03369128 -0.35376966  0.00359544  0.581701  ], 1.9767857477382162, False]","[[-0.03369128 -0.35376966  0.00359544  0.581701  ], 0, [-0.04076667 -0.5489418   0.01522946  0.8755144 ], 1.9687950249576036, False]","[[-0.04076667 -0.5489418   0.01522946  0.8755144 ], 0, [-0.0517455  -0.7442674   0.03273974  1.1729461 ], 1.9102985918156494, False]","[[-0.0517455  -0.7442674   0.03273974  1.1729461 ], 0, [-0.06663086 -0.9397993   0.05619866  1.4757105 ], 1.8221186124356588, False]","[[-0.06663086 -0.9397993   0.05619866  1.4757105 ], 0, [-0.08542684 -1.135561    0.08571287  1.7854031 ], 1.7039082884970371, False]","[[-0.08542684 -1.135561    0.08571287  1.7854031 ], 0, [-0.10813806 -1.3315349   0.12142093  2.1034534 ], 1.5551566613035475, False]","[[-0.10813806 -1.3315349   0.12142093  2.1034534 ], 0, [-0.13476875 -1.5276477   0.16349     2.431067  ], 1.375200215111462, False]","[[-0.13476875 -1.5276477   0.16349     2.431067  ], 0, [-0.16532171 -1.7237542   0.21211134  2.7691565 ], 1.1632391154920554, True]",
4,"[[ 0.00278499 -0.0396794  -0.01267151 -0.02526147], 0, [ 0.0019914  -0.23461737 -0.01317674  0.26339668], 1.9383375707557602, False]","[[ 0.0019914  -0.23461737 -0.01317674  0.26339668], 0, [-0.00270094 -0.42954877 -0.00790881  0.55189455], 1.9362559395001964, False]","[[-0.00270094 -0.42954877 -0.00790881  0.55189455], 0, [-0.01129192 -0.62455875  0.00312908  0.8420752 ], 1.9611128301321585, False]","[[-0.01129192 -0.62455875  0.00312908  0.8420752 ], 0, [-0.02378309 -0.81972325  0.01997059  1.1357405 ], 1.980354764499228, False]","[[-0.02378309 -0.81972325  0.01997059  1.1357405 ], 0, [-0.04017756 -1.0151007   0.0426854   1.4346192 ], 1.8947378509346535, False]","[[-0.04017756 -1.0151007   0.0426854   1.4346192 ], 0, [-0.06047957 -1.2107223   0.07137778  1.7403301 ], 1.7794515932275343, False]","[[-0.06047957 -1.2107223   0.07137778  1.7403301 ], 0, [-0.08469401 -1.4065808   0.10618439  2.054337  ], 1.633996364509582, False]","[[-0.08469401 -1.4065808   0.10618439  2.054337  ], 0, [-0.11282563 -1.6026167   0.14727113  2.3778942 ], 1.4577177319361558, False]","[[-0.11282563 -1.6026167   0.14727113  2.3778942 ], 0, [-0.14487797 -1.7987019   0.19482902  2.7119794 ], 1.2498214872030713, False]","[[-0.14487797 -1.7987019   0.19482902  2.7119794 ], 0, [-0.18085201 -1.9946213   0.2490686   3.0572166 ], 1.0093941460403413, True]"
5,"[[ 0.01728741 -0.04728131 -0.04535891 -0.00426816], 0, [ 0.01634178 -0.24172439 -0.04544427  0.27376553], 1.7762240837921883, False]","[[ 0.01634178 -0.24172439 -0.04544427  0.27376553], 0, [ 0.01150729 -0.43616945 -0.03996896  0.551776  ], 1.77621050657199, False]","[[ 0.01150729 -0.43616945 -0.03996896  0.551776  ], 0, [ 0.0027839  -0.6307079  -0.02893344  0.83160293], 1.8043675679300917, False]","[[ 0.0027839  -0.6307079  -0.02893344  0.83160293], 0, [-0.00983025 -0.82542276 -0.01230138  1.1150477 ], 1.8606930428147916, False]","[[-0.00983025 -0.82542276 -0.01230138  1.1150477 ], 0, [-0.02633871 -1.0203811   0.00999957  1.4038465 ], 1.9371692942013805, False]","[[-0.02633871 -1.0203811   0.00999957  1.4038465 ], 0, [-0.04674633 -1.2156258   0.03807651  1.6996387 ], 1.9412810924462365, False]","[[-0.04674633 -1.2156258   0.03807651  1.6996387 ], 0, [-0.07105885 -1.4111652   0.07206928  2.0039272 ], 1.798720441681428, False]","[[-0.07105885 -1.4111652   0.07206928  2.0039272 ], 0, [-0.09928215 -1.6069608   0.11214782  2.3180282 ], 1.6262866830853389, False]","[[-0.09928215 -1.6069608   0.11214782  2.3180282 ], 0, [-0.13142137 -1.8029114   0.15850839  2.6430101 ], 1.4231660247612217, False]","[[-0.13142137 -1.8029114   0.15850839  2.6430101 ], 0, [-0.1674796  -1.9988358   0.21136859  2.979619  ], 1.188419280277513, True]"
6,"[[0.00602172 0.0146834  0.0402942  0.04024153], 0, [ 0.00631539 -0.18099251  0.04109903  0.34536043], 1.8051002979573958, False]","[[ 0.00631539 -0.18099251  0.04109903  0.34536043], 0, [ 0.00269554 -0.37667426  0.04800624  0.65071493], 1.80113515451403, False]","[[ 0.00269554 -0.37667426  0.04800624  0.65071493], 0, [-0.00483795 -0.57243085  0.06102054  0.9581199 ], 1.769663928246238, False]","[[-0.00483795 -0.57243085  0.06102054  0.9581199 ], 0, [-0.01628656 -0.7683178   0.08018294  1.2693324 ], 1.7066325621914396, False]","[[-0.01628656 -0.7683178   0.08018294  1.2693324 ], 0, [-0.03165292 -0.96436685  0.10556959  1.5860096 ], 1.6103685947830693, False]","[[-0.03165292 -0.96436685  0.10556959  1.5860096 ], 0, [-0.05094026 -1.1605736   0.13728978  1.909661  ], 1.4827536390395757, False]","[[-0.05094026 -1.1605736   0.13728978  1.909661  ], 0, [-0.07415173 -1.3568839   0.175483    2.2415922 ], 1.3232644918307268, False]","[[-0.07415173 -1.3568839   0.175483    2.2415922 ], 0, [-0.10128941 -1.5531776   0.22031485  2.5828383 ], 1.1312338230715058, True]",,
7,"[[-0.04726496 -0.0387833   0.03286339 -0.03653898], 0, [-0.04804062 -0.23436074  0.03213261  0.26632887], 1.823395157065553, False]","[[-0.04804062 -0.23436074  0.03213261  0.26632887], 0, [-0.05272784 -0.42992622  0.03745918  0.56897104], 1.8265611761065645, False]","[[-0.05272784 -0.42992622  0.03745918  0.56897104], 0, [-0.06132637 -0.62555295  0.0488386   0.87321573], 1.7991756398448717, False]","[[-0.06132637 -0.62555295  0.0488386   0.87321573], 0, [-0.07383742 -0.8213037   0.06630292  1.1808447 ], 1.7412601891713706, False]","[[-0.07383742 -0.8213037   0.06630292  1.1808447 ], 0, [-0.09026349 -1.0172207   0.08991981  1.4935532 ], 1.6526612938239138, False]","[[-0.09026349 -1.0172207   0.08991981  1.4935532 ], 0, [-0.11060791 -1.2133142   0.11979087  1.8129058 ], 1.533054729583231, False]","[[-0.11060791 -1.2133142   0.11979087  1.8129058 ], 0, [-0.1348742  -1.4095495   0.15604898  2.1402836 ], 1.3819540779650652, False]","[[-0.1348742  -1.4095495   0.15604898  2.1402836 ], 0, [-0.16306518 -1.6058317   0.19885466  2.476822  ], 1.1987234069388775, False]","[[-0.16306518 -1.6058317   0.19885466  2.476822  ], 0, [-0.19518182 -1.8019885   0.24839109  2.8233376 ], 0.9825951357906965, True]",
8,"[[0.0255114  0.02448871 0.02905021 0.00831542], 0, [ 0.02600118 -0.17103755  0.02921652  0.31002063], 1.8506657020836372, False]","[[ 0.02600118 -0.17103755  0.02921652  0.31002063], 0, [ 0.02258043 -0.36656332  0.03541693  0.61177254], 1.8496675662770166, False]","[[ 0.02258043 -0.36656332  0.03541693  0.61177254], 0, [ 0.01524916 -0.5621619   0.04765239  0.9153968 ], 1.8214880825792206, False]","[[ 0.01524916 -0.5621619   0.04765239  0.9153968 ], 0, [ 0.00400592 -0.7578948   0.06596033  1.2226673 ], 1.766122799207845, False]","[[ 0.00400592 -0.7578948   0.06596033  1.2226673 ], 0, [-0.01115198 -0.9538016   0.09041367  1.5352668 ], 1.683393511438807, False]","[[-0.01115198 -0.9538016   0.09041367  1.5352668 ], 0, [-0.03022801 -1.1498885   0.12111901  1.8547412 ], 1.563659846134958, False]","[[-0.03022801 -1.1498885   0.12111901  1.8547412 ], 0, [-0.05322577 -1.3461155   0.15821384  2.1824472 ], 1.4091043353872053, False]","[[-0.05322577 -1.3461155   0.15821384  2.1824472 ], 0, [-0.08014809 -1.5423801   0.20186278  2.5194883 ], 1.2224071580731537, False]","[[-0.08014809 -1.5423801   0.20186278  2.5194883 ], 0, [-0.11099569 -1.7385005   0.25225255  2.866641  ], 1.002781175593793, True]",
9,"[[ 0.01375391 -0.00163539  0.04282993  0.04108092], 0, [ 0.0137212  -0.19734451  0.04365155  0.34696352], 1.7897713306503333, False]","[[ 0.0137212  -0.19734451  0.04365155  0.34696352], 0, [ 0.00977431 -0.3930593   0.05059082  0.65308553], 1.78586201139509, False]","[[ 0.00977431 -0.3930593   0.05059082  0.65308553], 0, [ 0.00191313 -0.5888479   0.06365254  0.96126   ], 1.7543739771868236, False]","[[ 0.00191313 -0.5888479   0.06365254  0.96126   ], 0, [-0.00986383 -0.7847649   0.08287774  1.2732416 ], 1.6952843837558995, False]","[[-0.00986383 -0.7847649   0.08287774  1.2732416 ], 0, [-0.02555913 -0.98084074  0.10834257  1.590684  ], 1.6001780089269997, False]","[[-0.02555913 -0.98084074  0.10834257  1.590684  ], 0, [-0.04517594 -1.1770695   0.14015625  1.9150919 ], 1.4720526814058363, False]","[[-0.04517594 -1.1770695   0.14015625  1.9150919 ], 0, [-0.06871733 -1.3733951   0.1784581   2.2477636 ], 1.3119798704953922, False]","[[-0.06871733 -1.3733951   0.1784581   2.2477636 ], 0, [-0.09618523 -1.5696948   0.22341336  2.5897255 ], 1.119293142181864, True]",,
