,0
0,37.51773811210717
1,24.286749529633482
2,15.057775028576861
3,16.92029303947452
4,21.23010793291169
5,21.732482753760834
6,56.03613676077879
7,90.09374001452551
8,16.807645609290443
9,26.775809132824854
10,42.34063046135269
11,20.66007999455066
12,25.045537059594345
13,17.74184573046716
14,26.453017727634716
15,28.791436666643555
16,35.63299221664963
17,40.646830908718265
18,50.85819896781903
19,26.071932794242578
20,23.22340024548191
21,21.02455693372562
22,30.144584775526543
23,15.338430436795118
24,23.556648364151837
25,20.771066392297342
26,14.652153684775314
27,34.567474021195466
28,16.21117897877842
29,21.43114172216944
30,15.870023268517343
31,32.281065624207955
32,24.431134526928943
33,17.083240344561275
34,19.20966729598255
35,13.572864446024386
36,20.468992802595796
37,31.6063473981818
38,16.7884207763388
39,33.851612737950745
40,16.300331795488823
41,19.428771706831476
42,15.018609953889161
43,14.31579075853474
44,12.261045058039345
45,22.23408861581608
46,21.76189274114593
47,23.80963672947219
48,28.622850242640087
49,32.597325916465664
50,37.11878555598216
51,18.602171398314894
52,16.190435532106807
53,22.847763094693537
54,14.385642167719858
55,17.029025853662276
56,18.514410306357007
57,25.697534502912102
58,33.387809538840166
59,18.255723421270034
60,19.29481039349329
61,16.946688509765806
62,18.830279414251528
63,16.94069629633898
64,15.056296438338254
65,20.35972886819424
66,14.490241618346309
67,19.51278258239007
68,14.588326500702488
69,20.35907897108648
70,16.455908351738838
71,16.906553403683155
72,15.453981109680864
73,15.38266019531264
74,14.453493834440042
75,21.99737296792961
76,19.153289567710683
77,17.89251564226944
78,20.672722985159844
79,15.498053144593886
80,27.06682112224342
81,30.268654483390755
82,16.624064148039327
83,25.378665106656413
84,18.31759706853677
85,16.943276783273518
86,17.03615731245352
87,12.417580422277608
88,17.041349398796207
89,20.62450137316523
90,16.94185851099686
91,15.081990824586981
92,22.419425803071327
93,14.089440009245433
94,16.92807890685856
95,19.838602120900266
96,23.60331185484031
97,16.6283102509615
98,16.977317610247844
99,18.943050991839684
