,0
0,16.466586061082324
1,15.479666885907708
2,17.10093639711074
3,15.452203299345719
4,16.841180278738683
5,17.132538017562183
6,12.63015249163398
7,13.939380806290146
8,14.169290176775636
9,12.528795405998238
