,0,1,2,3,4,5,6,7,8,9
0,"[[ 0.03325588 -0.03805229  0.00658861  0.04866735], 1, [ 0.03249483  0.15697457  0.00756196 -0.24192955], 1.954685074848121, False]","[[ 0.03249483  0.15697457  0.00756196 -0.24192955], 1, [ 0.03563432  0.3519877   0.00272337 -0.5322177 ], 1.9503547876557983, False]","[[ 0.03563432  0.3519877   0.00272337 -0.5322177 ], 1, [ 0.04267408  0.5470712  -0.00792098 -0.82404125], 1.9721492360795267, False]","[[ 0.04267408  0.5470712  -0.00792098 -0.82404125], 1, [ 0.0536155   0.7423006  -0.02440181 -1.1192049 ], 1.9443992214921177, False]","[[ 0.0536155   0.7423006  -0.02440181 -1.1192049 ], 1, [ 0.06846152  0.93773407 -0.04678591 -1.4194412 ], 1.8611501480769, False]","[[ 0.06846152  0.93773407 -0.04678591 -1.4194412 ], 1, [ 0.0872162   1.1334028  -0.07517473 -1.7263732 ], 1.7480881227423488, False]","[[ 0.0872162   1.1334028  -0.07517473 -1.7263732 ], 1, [ 0.10988425  1.3292996  -0.1097022  -2.041469  ], 1.6047270019805264, False]","[[ 0.10988425  1.3292996  -0.1097022  -2.041469  ], 1, [ 0.13647024  1.5253651  -0.15053158 -2.3659873 ], 1.4304254734050272, False]","[[ 0.13647024  1.5253651  -0.15053158 -2.3659873 ], 1, [ 0.16697754  1.7214718  -0.19785132 -2.70091   ], 1.2244020706309673, False]","[[ 0.16697754  1.7214718  -0.19785132 -2.70091   ], 1, [ 0.20140697  1.9174049  -0.25186953 -3.0468657 ], 0.9857555810859141, True]"
1,"[[ 0.04837304 -0.0496069   0.01113408 -0.03219629], 1, [ 0.0473809   0.14535363  0.01049016 -0.3213456 ], 1.9266832389767719, False]","[[ 0.0473809   0.14535363  0.01049016 -0.3213456 ], 1, [ 0.05028797  0.34032464  0.00406324 -0.610702  ], 1.9301711487260107, False]","[[ 0.05028797  0.34032464  0.00406324 -0.610702  ], 1, [ 0.05709447  0.53538954 -0.00815079 -0.90210235], 1.9596461124920814, False]","[[ 0.05709447  0.53538954 -0.00815079 -0.90210235], 1, [ 0.06780226  0.730621   -0.02619284 -1.1973361 ], 1.9372934619402677, False]","[[ 0.06780226  0.730621   -0.02619284 -1.1973361 ], 1, [ 0.08241468  0.92607194 -0.05013957 -1.4981118 ], 1.846687450651952, False]","[[ 0.08241468  0.92607194 -0.05013957 -1.4981118 ], 1, [ 0.10093611  1.1217661  -0.0801018  -1.806019  ], 1.7262617617950093, False]","[[ 0.10093611  1.1217661  -0.0801018  -1.806019  ], 1, [ 0.12337144  1.3176855  -0.11622218 -2.1224806 ], 1.575485348826232, False]","[[ 0.12337144  1.3176855  -0.11622218 -2.1224806 ], 1, [ 0.14972515  1.5137566  -0.1586718  -2.448696  ], 1.3936751991512915, False]","[[ 0.14972515  1.5137566  -0.1586718  -2.448696  ], 1, [ 0.18000029  1.7098336  -0.20764571 -2.7855709 ], 1.1800124977321893, False]","[[ 0.18000029  1.7098336  -0.20764571 -2.7855709 ], 1, [ 0.21419697  1.905679   -0.26335713 -3.1336386 ], 0.933564623852687, True]"
2,"[[-0.0039217  -0.02736135  0.03706658  0.00170181], 1, [-0.00446893  0.16720995  0.03710061 -0.2790596 ], 1.8213860991327349, False]","[[-0.00446893  0.16720995  0.03710061 -0.2790596 ], 1, [-0.00112473  0.36178353  0.03151942 -0.55981404], 1.820995568518425, False]","[[-0.00112473  0.36178353  0.03151942 -0.55981404], 1, [ 0.00611094  0.55644923  0.02032314 -0.8424024 ], 1.8490372168484226, False]","[[ 0.00611094  0.55644923  0.02032314 -0.8424024 ], 1, [ 0.01723993  0.751288    0.00347509 -1.1286256 ], 1.900417925079566, False]","[[ 0.01723993  0.751288    0.00347509 -1.1286256 ], 1, [ 0.03226569  0.9463643  -0.01909742 -1.4202166 ], 1.9762243516897127, False]","[[ 0.03226569  0.9463643  -0.01909742 -1.4202166 ], 1, [ 0.05119298  1.1417173  -0.04750175 -1.7188069 ], 1.8953725016233625, False]","[[ 0.05119298  1.1417173  -0.04750175 -1.7188069 ], 1, [ 0.07402732  1.3373504  -0.08187789 -2.0258856 ], 1.751865442183689, False]","[[ 0.07402732  1.3373504  -0.08187789 -2.0258856 ], 1, [ 0.10077433  1.533218   -0.1223956  -2.342748  ], 1.5782171678350891, False]","[[ 0.10077433  1.533218   -0.1223956  -2.342748  ], 1, [ 0.13143869  1.7292104  -0.16925056 -2.6704316 ], 1.3736147644742687, False]","[[ 0.13143869  1.7292104  -0.16925056 -2.6704316 ], 1, [ 0.1660229  1.9251349 -0.2226592 -3.0096416], 1.1371219695724233, True]"
3,"[[0.01121277 0.02973869 0.02892876 0.02907179], 1, [ 0.01180754  0.2244341   0.0295102  -0.25434527], 1.8572033385021247, False]","[[ 0.01180754  0.2244341   0.0295102  -0.25434527], 1, [ 0.01629622  0.41912252  0.02442329 -0.537576  ], 1.854179364160833, False]","[[ 0.01629622  0.41912252  0.02442329 -0.537576  ], 1, [ 0.02467868  0.61389273  0.01367177 -0.82246447], 1.8765972684887022, False]","[[ 0.02467868  0.61389273  0.01367177 -0.82246447], 1, [ 0.03695653  0.808825   -0.00277752 -1.1108161 ], 1.924439308626114, False]","[[ 0.03695653  0.808825   -0.00277752 -1.1108161 ], 1, [ 0.05313303  1.0039834  -0.02499384 -1.4043691 ], 1.971339784206035, False]","[[ 0.05313303  1.0039834  -0.02499384 -1.4043691 ], 1, [ 0.0732127   1.1994066  -0.05308122 -1.7047598 ], 1.8585244482314816, False]","[[ 0.0732127   1.1994066  -0.05308122 -1.7047598 ], 1, [ 0.09720083  1.3950976  -0.08717642 -2.0134816 ], 1.7160505437044031, False]","[[ 0.09720083  1.3950976  -0.08717642 -2.0134816 ], 1, [ 0.12510279  1.5910105  -0.12744606 -2.3318324 ], 1.5432629088671623, False]","[[ 0.12510279  1.5910105  -0.12744606 -2.3318324 ], 1, [ 0.156923   1.7870345 -0.1740827 -2.6608515], 1.3393637473529703, False]","[[ 0.156923   1.7870345 -0.1740827 -2.6608515], 1, [ 0.19266368  1.9829764  -0.22729972 -3.0012443 ], 1.1034317689695108, True]"
4,"[[-0.00172391  0.04959283  0.04267741  0.00590592], 1, [-0.00073205  0.24407756  0.04279552 -0.27301222], 1.7955120990786457, False]","[[-0.00073205  0.24407756  0.04279552 -0.27301222], 1, [ 0.0041495   0.4385636   0.03733528 -0.5518961 ], 1.7953614017680677, False]","[[ 0.0041495   0.4385636   0.03733528 -0.5518961 ], 1, [ 0.01292077  0.6331419   0.02629736 -0.83258605], 1.8200082104255149, False]","[[ 0.01292077  0.6331419   0.02629736 -0.83258605], 1, [ 0.02558361  0.8278948   0.00964564 -1.1168839 ], 1.8690557069992, False]","[[ 0.02558361  0.8278948   0.00964564 -1.1168839 ], 1, [ 0.0421415   1.0228889  -0.01269204 -1.4065255 ], 1.943285634800673, False]","[[ 0.0421415   1.0228889  -0.01269204 -1.4065255 ], 1, [ 0.06259928  1.2181661  -0.04082255 -1.703149  ], 1.9218410149904264, False]","[[ 0.06259928  1.2181661  -0.04082255 -1.703149  ], 1, [ 0.0869626   1.4137335  -0.07488553 -2.0082543 ], 1.7790036453009122, False]","[[ 0.0869626   1.4137335  -0.07488553 -2.0082543 ], 1, [ 0.11523727  1.6095508  -0.11505062 -2.3231528 ], 1.6062135033126381, False]","[[ 0.11523727  1.6095508  -0.11505062 -2.3231528 ], 1, [ 0.14742829  1.8055148  -0.16151367 -2.6489058 ], 1.4026582167509702, False]","[[ 0.14742829  1.8055148  -0.16151367 -2.6489058 ], 1, [ 0.18353859  2.0014415  -0.21449178 -2.9862494 ], 1.1674005713977915, True]"
5,"[[ 0.00472549 -0.02360314 -0.02059175  0.00821179], 1, [ 0.00425343  0.17180799 -0.02042752 -0.2908963 ], 1.899712669711217, False]","[[ 0.00425343  0.17180799 -0.02042752 -0.2908963 ], 1, [ 0.00768959  0.36721516 -0.02624544 -0.58995116], 1.9006935269302994, False]","[[ 0.00768959  0.36721516 -0.02624544 -0.58995116], 1, [ 0.01503389  0.56269455 -0.03804447 -0.89078456], 1.8714832453464114, False]","[[ 0.01503389  0.56269455 -0.03804447 -0.89078456], 1, [ 0.02628778  0.75831145 -0.05586016 -1.1951799 ], 1.812086927224919, False]","[[ 0.02628778  0.75831145 -0.05586016 -1.1951799 ], 1, [ 0.04145401  0.9541104  -0.07976376 -1.5048345 ], 1.7223341495902575, False]","[[ 0.04145401  0.9541104  -0.07976376 -1.5048345 ], 1, [ 0.06053622  1.1501043  -0.10986044 -1.8213164 ], 1.6018836183529344, False]","[[ 0.06053622  1.1501043  -0.10986044 -1.8213164 ], 1, [ 0.0835383   1.3462617  -0.14628677 -2.1460128 ], 1.4502316016727983, False]","[[ 0.0835383   1.3462617  -0.14628677 -2.1460128 ], 1, [ 0.11046354  1.5424918  -0.18920703 -2.4800692 ], 1.2667244944804887, False]","[[ 0.11046354  1.5424918  -0.18920703 -2.4800692 ], 1, [ 0.14131337  1.7386267  -0.23880841 -2.8243165 ], 1.0505764922770386, True]",
6,"[[ 0.04099844 -0.02964974 -0.03911371 -0.03842059], 1, [ 0.04040545  0.16601063 -0.03988212 -0.3431832 ], 1.796163098865479, False]","[[ 0.04040545  0.16601063 -0.03988212 -0.3431832 ], 1, [ 0.04372566  0.3616766  -0.04674579 -0.648171  ], 1.7927412837084233, False]","[[ 0.04372566  0.3616766  -0.04674579 -0.648171  ], 1, [ 0.05095919  0.5574176  -0.05970921 -0.95519996], 1.7585862758656012, False]","[[ 0.05095919  0.5574176  -0.05970921 -0.95519996], 1, [ 0.06210754  0.75328964 -0.07881321 -1.2660285 ], 1.6936765258993738, False]","[[ 0.06210754  0.75328964 -0.07881321 -1.2660285 ], 1, [ 0.07717334  0.9493252  -0.10413378 -1.5823162 ], 1.5978164973105482, False]","[[ 0.07717334  0.9493252  -0.10413378 -1.5823162 ], 1, [ 0.09615984  1.1455208  -0.1357801  -1.9055754 ], 1.470642280673753, False]","[[ 0.09615984  1.1455208  -0.1357801  -1.9055754 ], 1, [ 0.11907025  1.3418235  -0.1738916  -2.237116  ], 1.3116311969600334, False]","[[ 0.11907025  1.3418235  -0.1738916  -2.237116  ], 1, [ 0.14590672  1.5381145  -0.21863392 -2.5779793 ], 1.1201161441469287, True]",,
7,"[[ 0.00150713  0.04798393 -0.02203648  0.01410851], 1, [ 0.00246681  0.24341486 -0.02175431 -0.28544492], 1.8941555881957366, False]","[[ 0.00246681  0.24341486 -0.02175431 -0.28544492], 1, [ 0.00733511  0.4388402  -0.02746321 -0.58490884], 1.8951029858392285, False]","[[ 0.00733511  0.4388402  -0.02746321 -0.58490884], 1, [ 0.01611191  0.6343359  -0.03916138 -0.88611495], 1.8658165509642646, False]","[[ 0.01611191  0.6343359  -0.03916138 -0.88611495], 1, [ 0.02879863  0.82996696 -0.05688368 -1.190847  ], 1.806304868261487, False]","[[ 0.02879863  0.82996696 -0.05688368 -1.190847  ], 1, [ 0.04539797  1.0257779  -0.08070062 -1.5008032 ], 1.7164009983447617, False]","[[ 0.04539797  1.0257779  -0.08070062 -1.5008032 ], 1, [ 0.06591353  1.2217818  -0.11071669 -1.8175526 ], 1.5957670980505063, False]","[[ 0.06591353  1.2217818  -0.11071669 -1.8175526 ], 1, [ 0.09034917  1.4179474  -0.14706774 -2.1424835 ], 1.443902795783496, False]","[[ 0.09034917  1.4179474  -0.14706774 -2.1424835 ], 1, [ 0.11870812  1.6141837  -0.18991742 -2.4767425 ], 1.260157777123697, False]","[[ 0.11870812  1.6141837  -0.18991742 -2.4767425 ], 1, [ 0.1509918   1.8103231  -0.23945227 -2.8211625 ], 1.0437494207236604, True]",
8,"[[-0.00091442 -0.04006078  0.04010778  0.01369346], 1, [-0.00171564  0.15446371  0.04038164 -0.2660701 ], 1.8081184691703274, False]","[[-0.00171564  0.15446371  0.04038164 -0.2660701 ], 1, [ 0.00137364  0.34898674  0.03506024 -0.5457478 ], 1.806477003878967, False]","[[ 0.00137364  0.34898674  0.03506024 -0.5457478 ], 1, [ 0.00835337  0.543599    0.02414528 -0.82718116], 1.8320273276041954, False]","[[ 0.00835337  0.543599    0.02414528 -0.82718116], 1, [ 0.01922535  0.73838264  0.00760166 -1.1121734 ], 1.881234186073468, False]","[[ 0.01922535  0.73838264  0.00760166 -1.1121734 ], 1, [ 0.03399301  0.9334039  -0.01464181 -1.402462  ], 1.955694176252867, False]","[[ 0.03399301  0.9334039  -0.01464181 -1.402462  ], 1, [ 0.05266108  1.1287047  -0.04269105 -1.6996863 ], 1.9159267668281452, False]","[[ 0.05266108  1.1287047  -0.04269105 -1.6996863 ], 1, [ 0.07523518  1.3242918  -0.07668477 -2.005347  ], 1.774223141247405, False]","[[ 0.07523518  1.3242918  -0.07668477 -2.005347  ], 1, [ 0.10172102  1.5201246  -0.11679171 -2.3207562 ], 1.6025091877678401, False]","[[ 0.10172102  1.5201246  -0.11679171 -2.3207562 ], 1, [ 0.13212352  1.7160993  -0.16320683 -2.6469746 ], 1.3999769022804043, False]","[[ 0.13212352  1.7160993  -0.16320683 -2.6469746 ], 1, [ 0.1664455   1.9120313  -0.21614632 -2.9847372 ], 1.165693320222853, True]"
9,"[[ 0.02576048  0.01270305 -0.00386831  0.04111622], 1, [ 0.02601454  0.20788026 -0.00304599 -0.2527847 ], 1.970796646495903, False]","[[ 0.02601454  0.20788026 -0.00304599 -0.2527847 ], 1, [ 0.03017214  0.40304556 -0.00810168 -0.54642683], 1.9746170970581098, False]","[[ 0.03017214  0.40304556 -0.00810168 -0.54642683], 1, [ 0.03823305  0.59828043 -0.01903022 -0.8416513 ], 1.9487456003819137, False]","[[ 0.03823305  0.59828043 -0.01903022 -0.8416513 ], 1, [ 0.05019866  0.7936569  -0.03586324 -1.1402575 ], 1.8932069677772816, False]","[[ 0.05019866  0.7936569  -0.03586324 -1.1402575 ], 1, [ 0.0660718   0.98922884 -0.05866839 -1.4439683 ], 1.8078495182357914, False]","[[ 0.0660718   0.98922884 -0.05866839 -1.4439683 ], 1, [ 0.08585638  1.1850218  -0.08754776 -1.754391  ], 1.692349137423327, False]","[[ 0.08585638  1.1850218  -0.08754776 -1.754391  ], 1, [ 0.10955682  1.3810207  -0.12263557 -2.0729694 ], 1.5462167619211766, False]","[[ 0.10955682  1.3810207  -0.12263557 -2.0729694 ], 1, [ 0.13717723  1.5771562  -0.16409495 -2.4009278 ], 1.368809596484875, False]","[[ 0.13717723  1.5771562  -0.16409495 -2.4009278 ], 1, [ 0.16872035  1.7732878  -0.21211351 -2.7392008 ], 1.1593471258329444, True]",
