,0
0,15.241946392322756
1,14.588847646665895
2,15.076478939224396
3,16.45139334367249
4,12.59670499362025
5,17.012077773250827
6,18.11558098273859
7,16.771181374177935
8,15.35310041321567
9,16.70785557275603
