,0,1,2,3,4,5,6,7,8,9
0,16.711285292333077,12.945234586763023,14.944542980329736,18.086582155989124,17.10534325249578,17.050286638189565,15.402981723785631,16.587861565404793,12.350721135772035,17.184171551830545
1,16.466586061082324,15.479666885907708,17.10093639711074,15.452203299345719,16.841180278738683,17.132538017562183,12.63015249163398,13.939380806290146,14.169290176775636,12.528795405998238
2,12.409875151753193,17.062676077280134,14.56257209885245,15.543606150969943,14.46268277736326,13.91963714389147,17.104731538342016,16.917754872584943,15.101329684745417,15.561437219986226
3,17.169595335320572,17.106791520154207,15.543179536484054,15.117085689875193,13.973211787409458,15.038488951510983,16.701424506217236,14.97848936385256,17.055365731363647,15.20193214027901
4,12.737421598398981,17.137195179894626,16.79694506714875,13.98349668799892,15.131310898542754,16.897401521994805,12.790968420594545,12.391586687544965,16.946139912605588,15.541259063454707
5,17.95473197374519,15.33004218491951,17.095638899331043,12.711851823891408,14.026221611450756,14.739960136844639,16.847772455405185,15.60106395000371,12.403311073739275,16.9570999876935
6,14.474657147758839,18.088882337349496,16.627315501623972,17.143935522631164,14.310013592485458,12.656603266711011,12.94259549222006,16.605179994173927,16.652102932491857,16.565842778361997
7,14.065688104928052,16.976598357213906,17.190391978579125,17.11768847390285,12.761292032793175,16.91415756222081,17.00025222878227,16.86366500802205,17.023317981842688,16.87192517720027
8,16.676136717997245,16.40948084414449,17.10425300695769,17.044392481109337,17.10034000482484,14.575726725586364,12.54137330343014,14.521358083286838,17.14188048132647,15.361938451611321
9,15.241946392322756,14.588847646665895,15.076478939224396,16.45139334367249,12.59670499362025,17.012077773250827,18.11558098273859,16.771181374177935,15.35310041321567,16.70785557275603
