,0,1,2,3,4,5,6,7,8,9
0,"[[-0.02967182  0.04047875 -0.03924418 -0.02953167], 1, [-0.02886225  0.23614088 -0.03983482 -0.3343337 ], 1.8002595731821063, False]","[[-0.02886225  0.23614088 -0.03983482 -0.3343337 ], 1, [-0.02413943  0.43180647 -0.04652149 -0.63930756], 1.7977768281759037, False]","[[-0.02413943  0.43180647 -0.04652149 -0.63930756], 1, [-0.0155033   0.6275451  -0.05930764 -0.9462703 ], 1.7678181587756847, False]","[[-0.0155033   0.6275451  -0.05930764 -0.9462703 ], 1, [-0.0029524   0.8234135  -0.07823304 -1.2569826 ], 1.7103671767295408, False]","[[-0.0029524   0.8234135  -0.07823304 -1.2569826 ], 1, [ 0.01351587  1.0194448  -0.10337269 -1.5731071 ], 1.6252345795171539, False]","[[ 0.01351587  1.0194448  -0.10337269 -1.5731071 ], 1, [ 0.03390477  1.2156367  -0.13483484 -1.8961616 ], 1.5008001338543209, False]","[[ 0.03390477  1.2156367  -0.13483484 -1.8961616 ], 1, [ 0.0582175   1.411938   -0.17275807 -2.2274623 ], 1.3420840702364714, False]","[[ 0.0582175   1.411938   -0.17275807 -2.2274623 ], 1, [ 0.08645626  1.608232   -0.21730731 -2.568059  ], 1.1508836705593861, True]",,
1,"[[-0.03111956  0.03890913 -0.02729422 -0.036664  ], 1, [-0.03034138  0.23441164 -0.0280275  -0.33783203], 1.8567132134752806, False]","[[-0.03034138  0.23441164 -0.0280275  -0.33783203], 1, [-0.02565314  0.42992097 -0.03478414 -0.6392199 ], 1.853536299786798, False]","[[-0.02565314  0.42992097 -0.03478414 -0.6392199 ], 1, [-0.01705473  0.6255102  -0.04756854 -0.94265074], 1.8232291459850454, False]","[[-0.01705473  0.6255102  -0.04756854 -0.94265074], 1, [-0.00454452  0.8212397  -0.06642155 -1.2498928 ], 1.7657708112298673, False]","[[-0.00454452  0.8212397  -0.06642155 -1.2498928 ], 1, [ 0.01188027  1.0171472  -0.09141941 -1.5626196 ], 1.6809668925077634, False]","[[ 0.01188027  1.0171472  -0.09141941 -1.5626196 ], 1, [ 0.03222322  1.2132359  -0.12267181 -1.8823643 ], 1.558554338770516, False]","[[ 0.03222322  1.2132359  -0.12267181 -1.8823643 ], 1, [ 0.05648793  1.4094615  -0.16031909 -2.210466  ], 1.400858933653551, False]","[[ 0.05648793  1.4094615  -0.16031909 -2.210466  ], 1, [ 0.08467716  1.6057166  -0.2045284  -2.5480056 ], 1.2109960924954533, False]","[[ 0.08467716  1.6057166  -0.2045284  -2.5480056 ], 1, [ 0.11679149  1.8018123  -0.2554885  -2.8957312 ], 0.9881666443080341, True]",
2,"[[0.01464474 0.04842521 0.02423704 0.03126806], 1, [ 0.01561325  0.24319136  0.0248624  -0.25367036], 1.8781746614985064, False]","[[ 0.01561325  0.24319136  0.0248624  -0.25367036], 1, [ 0.02047708  0.43794966  0.019789   -0.5384087 ], 1.8747852405914678, False]","[[ 0.02047708  0.43794966  0.019789   -0.5384087 ], 1, [ 0.02923607  0.6327879   0.00902082 -0.82479125], 1.8969823834379544, False]","[[ 0.02923607  0.6327879   0.00902082 -0.82479125], 1, [ 0.04189183  0.8277853  -0.007475   -1.1146234 ], 1.9447470472104227, False]","[[ 0.04189183  0.8277853  -0.007475   -1.1146234 ], 1, [ 0.05844754  1.0230047  -0.02976747 -1.4096419 ], 1.9468545650843732, False]","[[ 0.05844754  1.0230047  -0.02976747 -1.4096419 ], 1, [ 0.07890763  1.2184829  -0.05796031 -1.7114797 ], 1.8335176580773593, False]","[[ 0.07890763  1.2184829  -0.05796031 -1.7114797 ], 1, [ 0.10327729  1.4142206  -0.0921899  -2.021624  ], 1.6903817294402042, False]","[[ 0.10327729  1.4142206  -0.0921899  -2.021624  ], 1, [ 0.1315617   1.6101686  -0.13262238 -2.3413634 ], 1.5167934451097405, False]","[[ 0.1315617   1.6101686  -0.13262238 -2.3413634 ], 1, [ 0.16376507  1.8062123  -0.17944965 -2.6717234 ], 1.3119574248936947, False]","[[ 0.16376507  1.8062123  -0.17944965 -2.6717234 ], 1, [ 0.19988932  2.0021532  -0.23288411 -3.0133905 ], 1.0749555991309694, True]"
3,"[[-0.02397235 -0.04488144 -0.01240153 -0.00966593], 1, [-0.02486998  0.15041615 -0.01259485 -0.30623573], 1.9307985775232344, False]","[[-0.02486998  0.15041615 -0.01259485 -0.30623573], 1, [-0.02186166  0.34571528 -0.01871956 -0.60286397], 1.9295015382223597, False]","[[-0.02186166  0.34571528 -0.01871956 -0.60286397], 1, [-0.01494735  0.541094   -0.03077684 -0.90138394], 1.9015116445017197, False]","[[-0.01494735  0.541094   -0.03077684 -0.90138394], 1, [-0.00412547  0.7366191  -0.04880452 -1.2035797 ], 1.846823332957873, False]","[[-0.00412547  0.7366191  -0.04880452 -1.2035797 ], 1, [ 0.01060691  0.93233687 -0.07287612 -1.5111495 ], 1.7652566271368793, False]","[[ 0.01060691  0.93233687 -0.07287612 -1.5111495 ], 1, [ 0.02925365  1.128262   -0.10309911 -1.8256638 ], 1.6476226215309224, False]","[[ 0.02925365  1.128262   -0.10309911 -1.8256638 ], 1, [ 0.05181889  1.3243655  -0.13961238 -2.1485145 ], 1.495549001762019, False]","[[ 0.05181889  1.3243655  -0.13961238 -2.1485145 ], 1, [ 0.0783062   1.5205591  -0.18258266 -2.4808543 ], 1.3118088003921045, False]","[[ 0.0783062   1.5205591  -0.18258266 -2.4808543 ], 1, [ 0.10871738  1.7166784  -0.23219974 -2.823525  ], 1.095604424386547, True]",
4,"[[-0.0448508   0.02631916  0.03114792  0.03325533], 1, [-0.04432442  0.22098091  0.03181303 -0.24943966], 1.8325918039184494, False]","[[-0.04432442  0.22098091  0.03181303 -0.24943966], 1, [-0.0399048   0.41563445  0.02682423 -0.5319208 ], 1.8296354837336368, False]","[[-0.0399048   0.41563445  0.02682423 -0.5319208 ], 1, [-0.03159212  0.610369    0.01618582 -0.81603223], 1.8552967242997722, False]","[[-0.03159212  0.610369    0.01618582 -0.81603223], 1, [-1.9384734e-02  8.0526567e-01 -1.3482824e-04 -1.1035805e+00], 1.9095550379001605, False]","[[-1.9384734e-02  8.0526567e-01 -1.3482824e-04 -1.1035805e+00], 1, [-0.00327942  1.0003893  -0.02220644 -1.3963057 ], 1.9912792699425907, False]","[[-0.00327942  1.0003893  -0.02220644 -1.3963057 ], 1, [ 0.01672837  1.1957804  -0.05013255 -1.6958481 ], 1.8926056488188647, False]","[[ 0.01672837  1.1957804  -0.05013255 -1.6958481 ], 1, [ 0.04064398  1.3914436  -0.08404952 -2.003707  ], 1.7536645518884384, False]","[[ 0.04064398  1.3914436  -0.08404952 -2.003707  ], 1, [ 0.06847285  1.5873355  -0.12412366 -2.321189  ], 1.5817581350223389, False]","[[ 0.06847285  1.5873355  -0.12412366 -2.321189  ], 1, [ 0.10021956  1.7833487  -0.17054744 -2.6493454 ], 1.3788228482645943, False]","[[ 0.10021956  1.7833487  -0.17054744 -2.6493454 ], 1, [ 0.13588654  1.9792942  -0.22353435 -2.9888976 ], 1.1439378056759537, True]"
5,"[[-0.03867405 -0.02038992 -0.0113154   0.0441638 ], 1, [-0.03908185  0.17489246 -0.01043213 -0.25206766], 1.9298587379565015, False]","[[-0.03908185  0.17489246 -0.01043213 -0.25206766], 1, [-0.035584    0.3701618  -0.01547348 -0.54802275], 1.9339061517980125, False]","[[-0.035584    0.3701618  -0.01547348 -0.54802275], 1, [-0.02818076  0.5654977  -0.02643394 -0.8455405 ], 1.9112928999343737, False]","[[-0.02818076  0.5654977  -0.02643394 -0.8455405 ], 1, [-0.01687081  0.7609701  -0.04334475 -1.1464174 ], 1.8620452635475724, False]","[[-0.01687081  0.7609701  -0.04334475 -1.1464174 ], 1, [-0.0016514   0.95663047 -0.06627309 -1.4523716 ], 1.786014573925534, False]","[[-0.0016514   0.95663047 -0.06627309 -1.4523716 ], 1, [ 0.01748121  1.152501   -0.09532052 -1.7650024 ], 1.6828812036981025, False]","[[ 0.01748121  1.152501   -0.09532052 -1.7650024 ], 1, [ 0.04053123  1.3485625  -0.13062057 -2.0857413 ], 1.537594192791954, False]","[[ 0.04053123  1.3485625  -0.13062057 -2.0857413 ], 1, [ 0.06750248  1.5447402  -0.1723354  -2.4157944 ], 1.3594447126435512, False]","[[ 0.06750248  1.5447402  -0.1723354  -2.4157944 ], 1, [ 0.09839728  1.7408866  -0.22065128 -2.7560718 ], 1.149033039205492, True]",
6,"[[-0.00256292  0.01273421  0.01926808  0.04206484], 1, [-0.00230823  0.20757464  0.02010938 -0.2444771 ], 1.9069338093952193, False]","[[-0.00230823  0.20757464  0.02010938 -0.2444771 ], 1, [ 0.00184326  0.40240368  0.01521984 -0.5307498 ], 1.9030230294979227, False]","[[ 0.00184326  0.40240368  0.01521984 -0.5307498 ], 1, [ 0.00989133  0.5973083   0.00460484 -0.8185984 ], 1.9265626135830591, False]","[[ 0.00989133  0.5973083   0.00460484 -0.8185984 ], 1, [ 0.0218375   0.7923669  -0.01176713 -1.1098294 ], 1.9738921215069714, False]","[[ 0.0218375   0.7923669  -0.01176713 -1.1098294 ], 1, [ 0.03768484  0.9876415  -0.03396372 -1.4061805 ], 1.9347171429430519, False]","[[ 0.03768484  0.9876415  -0.03396372 -1.4061805 ], 1, [ 0.05743767  1.1831682  -0.06208733 -1.7092848 ], 1.822133179337339, False]","[[ 0.05743767  1.1831682  -0.06208733 -1.7092848 ], 1, [ 0.08110103  1.3789463  -0.09627302 -2.020628  ], 1.6796224882490884, False]","[[ 0.08110103  1.3789463  -0.09627302 -2.020628  ], 1, [ 0.10867996  1.5749251  -0.13668558 -2.3414953 ], 1.5065380939691324, False]","[[ 0.10867996  1.5749251  -0.13668558 -2.3414953 ], 1, [ 0.14017846  1.7709877  -0.18351549 -2.6729069 ], 1.3020911130327548, False]","[[ 0.14017846  1.7709877  -0.18351549 -2.6729069 ], 1, [ 0.17559822  1.9669335  -0.23697363 -3.0155413 ], 1.0653703928914695, True]"
7,"[[-0.03014203  0.01439309  0.01599444 -0.0456003 ], 1, [-0.02985417  0.20928209  0.01508243 -0.33319423], 1.9110730102133155, False]","[[-0.02985417  0.20928209  0.01508243 -0.33319423], 1, [-0.02566852  0.40418616  0.00841855 -0.621083  ], 1.9155474608728036, False]","[[-0.02566852  0.40418616  0.00841855 -0.621083  ], 1, [-0.0175848   0.5991895  -0.00400311 -0.9111027 ], 1.9491091850165057, False]","[[-0.0175848   0.5991895  -0.00400311 -0.9111027 ], 1, [-0.00560101  0.7943654  -0.02222517 -1.2050412 ], 1.9735595357307432, False]","[[-0.00560101  0.7943654  -0.02222517 -1.2050412 ], 1, [ 0.0102863   0.98976743 -0.04632599 -1.5046055 ], 1.8915488782724155, False]","[[ 0.0102863   0.98976743 -0.04632599 -1.5046055 ], 1, [ 0.03008165  1.1854198  -0.0764181  -1.8113842 ], 1.7745237202475668, False]","[[ 0.03008165  1.1854198  -0.0764181  -1.8113842 ], 1, [ 0.05379004  1.3813055  -0.11264578 -2.1268003 ], 1.622596421382223, False]","[[ 0.05379004  1.3813055  -0.11264578 -2.1268003 ], 1, [ 0.08141615  1.5773519  -0.1551818  -2.4520543 ], 1.4397434884056188, False]","[[ 0.08141615  1.5773519  -0.1551818  -2.4520543 ], 1, [ 0.11296319  1.7734145  -0.20422289 -2.7880547 ], 1.2251381088831483, False]","[[ 0.11296319  1.7734145  -0.20422289 -2.7880547 ], 1, [ 0.14843148  1.9692571  -0.259984   -3.135339  ], 0.9778395409060116, True]"
8,"[[-0.04044539  0.04558584  0.04452496 -0.01933037], 1, [-0.03953368  0.24004191  0.04413835 -0.29763937], 1.7705567446489563, False]","[[-0.03953368  0.24004191  0.04413835 -0.29763937], 1, [-0.03473284  0.4345078   0.03818556 -0.57608163], 1.7727825384545777, False]","[[-0.03473284  0.4345078   0.03818556 -0.57608163], 1, [-0.02604268  0.6290742   0.02666393 -0.8564947 ], 1.803205350043271, False]","[[-0.02604268  0.6290742   0.02666393 -0.8564947 ], 1, [-0.0134612   0.8238229   0.00953404 -1.1406757 ], 1.8618379882452776, False]","[[-0.0134612   0.8238229   0.00953404 -1.1406757 ], 1, [ 0.00301526  1.018819   -0.01327948 -1.4303534 ], 1.9488694942029583, False]","[[ 0.00301526  1.018819   -0.01327948 -1.4303534 ], 1, [ 0.02339164  1.2141023  -0.04188655 -1.7271566 ], 1.9353388141669339, False]","[[ 0.02339164  1.2141023  -0.04188655 -1.7271566 ], 1, [ 0.04767368  1.4096773  -0.07642968 -2.032573  ], 1.790259960186451, False]","[[ 0.04767368  1.4096773  -0.07642968 -2.032573  ], 1, [ 0.07586723  1.6054997  -0.11708114 -2.3478978 ], 1.6152111240817033, False]","[[ 0.07586723  1.6054997  -0.11708114 -2.3478978 ], 1, [ 0.10797723  1.8014616  -0.1640391  -2.6741714 ], 1.4093673755550769, False]","[[ 0.10797723  1.8014616  -0.1640391  -2.6741714 ], 1, [ 0.14400646  1.9973725  -0.21752253 -3.0121043 ], 1.1717804555314064, True]"
9,"[[ 0.04149822 -0.04828912  0.00082207  0.04114674], 1, [ 0.04053244  0.14682102  0.00164501 -0.2512767 ], 1.9787839665032176, False]","[[ 0.04053244  0.14682102  0.00164501 -0.2512767 ], 1, [ 0.04346886  0.34191945 -0.00338053 -0.5434403 ], 1.9752571515643476, False]","[[ 0.04346886  0.34191945 -0.00338053 -0.5434403 ], 1, [ 0.05030725  0.53708875 -0.01424933 -0.8371864 ], 1.965747150049407, False]","[[ 0.05030725  0.53708875 -0.01424933 -0.8371864 ], 1, [ 0.06104902  0.7324024  -0.03099306 -1.1343163 ], 1.9110030968587202, False]","[[ 0.06104902  0.7324024  -0.03099306 -1.1343163 ], 1, [ 0.07569707  0.9279159  -0.05367938 -1.4365562 ], 1.82658195002467, False]","[[ 0.07569707  0.9279159  -0.05367938 -1.4365562 ], 1, [ 0.09425539  1.123657   -0.08241051 -1.745519  ], 1.7121593728336246, False]","[[ 0.09425539  1.123657   -0.08241051 -1.745519  ], 1, [ 0.11672853  1.3196136  -0.11732089 -2.0626578 ], 1.5672457356620533, False]","[[ 0.11672853  1.3196136  -0.11732089 -2.0626578 ], 1, [ 0.1431208   1.5157202  -0.15857404 -2.389209  ], 1.3911971364038251, False]","[[ 0.1431208   1.5157202  -0.15857404 -2.389209  ], 1, [ 0.1734352   1.7118412  -0.20635822 -2.7261252 ], 1.183231043389593, False]","[[ 0.1734352   1.7118412  -0.20635822 -2.7261252 ], 1, [ 0.20767201  1.9077519  -0.26088074 -3.073996  ], 0.9424473922321981, True]"
