,0,1,2,3,4,5,6,7,8,9,10
0,"[[ 0.04187395 -0.00316482 -0.04028364 -0.04330201], 1, [ 0.04181065  0.19251093 -0.04114968 -0.34841773], 1.7902122962847578, False]","[[ 0.04181065  0.19251093 -0.04114968 -0.34841773], 1, [ 0.04566087  0.38819325 -0.04811804 -0.6537873 ], 1.7861036305756586, False]","[[ 0.04566087  0.38819325 -0.04811804 -0.6537873 ], 1, [ 0.05342473  0.583951   -0.06119378 -0.96122533], 1.7512279386279652, False]","[[ 0.05342473  0.583951   -0.06119378 -0.96122533], 1, [ 0.06510375  0.77983963 -0.08041829 -1.272488  ], 1.6855609031612093, False]","[[ 0.06510375  0.77983963 -0.08041829 -1.272488  ], 1, [ 0.08070055  0.97589046 -0.10586805 -1.5892314 ], 1.5889043907813574, False]","[[ 0.08070055  0.97589046 -0.10586805 -1.5892314 ], 1, [ 0.10021836  1.1720988  -0.13765268 -1.912963  ], 1.4608920730377069, False]","[[ 0.10021836  1.1720988  -0.13765268 -1.912963  ], 1, [ 0.12366033  1.3684096  -0.17591195 -2.244986  ], 1.3009992169282172, False]","[[ 0.12366033  1.3684096  -0.17591195 -2.244986  ], 1, [ 0.15102853  1.5647023  -0.22081167 -2.5863328 ], 1.1085571784618067, True]",,,
1,"[[0.00715876 0.0026668  0.04018935 0.00975072], 1, [ 0.00721209  0.19719002  0.04038436 -0.269986  ], 1.8051271813381797, False]","[[ 0.00721209  0.19719002  0.04038436 -0.269986  ], 1, [ 0.01115589  0.39171308  0.03498464 -0.54966295], 1.8041738289453018, False]","[[ 0.01115589  0.39171308  0.03498464 -0.54966295], 1, [ 0.01899016  0.5863266   0.02399139 -0.8311212 ], 1.828312337288286, False]","[[ 0.01899016  0.5863266   0.02399139 -0.8311212 ], 1, [ 0.03071669  0.78111255  0.00736896 -1.1161633 ], 1.877537006813501, False]","[[ 0.03071669  0.78111255  0.00736896 -1.1161633 ], 1, [ 0.04633894  0.976137   -0.0149543  -1.4065255 ], 1.9520171807318545, False]","[[ 0.04633894  0.976137   -0.0149543  -1.4065255 ], 1, [ 0.06586168  1.1714413  -0.04308481 -1.7038456 ], 1.9092905683843333, False]","[[ 0.06586168  1.1714413  -0.04308481 -1.7038456 ], 1, [ 0.08929051  1.3670318  -0.07716172 -2.009622  ], 1.766842812207671, False]","[[ 0.08929051  1.3670318  -0.07716172 -2.009622  ], 1, [ 0.11663114  1.5628672  -0.11735416 -2.325164  ], 1.5943755383605565, False]","[[ 0.11663114  1.5628672  -0.11735416 -2.325164  ], 1, [ 0.14788848  1.7588426  -0.16385745 -2.6515284 ], 1.3910788410823947, False]","[[ 0.14788848  1.7588426  -0.16385745 -2.6515284 ], 1, [ 0.18306534  1.9547722  -0.21688801 -2.989445  ], 1.1560181287246776, True]",
2,"[[-0.04510827 -0.00146491 -0.02106815  0.03351026], 1, [-0.04513757  0.19395274 -0.02039795 -0.26574475], 1.8806118713711428, False]","[[-0.04513757  0.19395274 -0.02039795 -0.26574475], 1, [-0.04125851  0.3893598  -0.02571284 -0.5647909 ], 1.8837996602713978, False]","[[-0.04125851  0.3893598  -0.02571284 -0.5647909 ], 1, [-0.03347132  0.5848329  -0.03700866 -0.86546236], 1.860039183685302, False]","[[-0.03347132  0.5848329  -0.03700866 -0.86546236], 1, [-0.02177466  0.7804385  -0.05431791 -1.1695479 ], 1.8093502923092408, False]","[[-0.02177466  0.7804385  -0.05431791 -1.1695479 ], 1, [-0.00616589  0.97622323 -0.07770886 -1.4787536 ], 1.7315783266894256, False]","[[-0.00616589  0.97622323 -0.07770886 -1.4787536 ], 1, [ 0.01335858  1.1722031  -0.10728393 -1.7946597 ], 1.626398391593897, False]","[[ 0.01335858  1.1722031  -0.10728393 -1.7946597 ], 1, [ 0.03680264  1.3683509  -0.14317714 -2.1186707 ], 1.4821908693323813, False]","[[ 0.03680264  1.3683509  -0.14317714 -2.1186707 ], 1, [ 0.06416965  1.564581   -0.18555056 -2.4519546 ], 1.3010450956829223, False]","[[ 0.06416965  1.564581   -0.18555056 -2.4519546 ], 1, [ 0.09546127  1.7607328  -0.23458965 -2.795371  ], 1.0873240012306487, True]",,
3,"[[ 0.01632306 -0.01159627  0.01405967  0.02866974], 1, [ 0.01609113  0.18332127  0.01463306 -0.25954425], 1.9260687666692111, False]","[[ 0.01609113  0.18332127  0.01463306 -0.25954425], 1, [ 0.01975756  0.3782313   0.00944218 -0.547576  ], 1.9234276436529196, False]","[[ 0.01975756  0.3782313   0.00944218 -0.547576  ], 1, [ 0.02732219  0.5732193  -0.00150934 -0.83726907], 1.9466846152622854, False]","[[ 0.02732219  0.5732193  -0.00150934 -0.83726907], 1, [ 0.03878657  0.7683618  -0.01825473 -1.1304263 ], 1.981409166923359, False]","[[ 0.03878657  0.7683618  -0.01825473 -1.1304263 ], 1, [ 0.05415381  0.963718   -0.04086325 -1.4287783 ], 1.8966790357435157, False]","[[ 0.05415381  0.963718   -0.04086325 -1.4287783 ], 1, [ 0.07342817  1.1593201  -0.06943882 -1.7339469 ], 1.7823282693304652, False]","[[ 0.07342817  1.1593201  -0.06943882 -1.7339469 ], 1, [ 0.09661457  1.3551623  -0.10411775 -2.0474007 ], 1.6378590095790933, False]","[[ 0.09661457  1.3551623  -0.10411775 -2.0474007 ], 1, [ 0.12371781  1.5511867  -0.14506577 -2.3704004 ], 1.4626182867679534, False]","[[ 0.12371781  1.5511867  -0.14506577 -2.3704004 ], 1, [ 0.15474156  1.7472677  -0.19247378 -2.7039328 ], 1.2558128816137966, False]","[[ 0.15474156  1.7472677  -0.19247378 -2.7039328 ], 1, [ 0.18968691  1.9431933  -0.24655244 -3.0486329 ], 1.0165297272934368, True]",
4,"[[-0.01138093 -0.03481058  0.01550053  0.02973646], 1, [-0.01207714  0.1600857   0.01609525 -0.25801584], 1.9212483919175718, False]","[[-0.01207714  0.1600857   0.01609525 -0.25801584], 1, [-0.00887542  0.3549742   0.01093494 -0.54557896], 1.9181186790950242, False]","[[-0.00887542  0.3549742   0.01093494 -0.54557896], 1, [-1.7759408e-03  5.4994082e-01  2.3358612e-05 -8.3479661e-01], 1.9440914244238168, False]","[[-1.7759408e-03  5.4994082e-01  2.3358612e-05 -8.3479661e-01], 1, [ 0.00922288  0.7450625  -0.01667257 -1.1274722 ], 1.9991484955226986, False]","[[ 0.00922288  0.7450625  -0.01667257 -1.1274722 ], 1, [ 0.02412413  0.9403988  -0.03922202 -1.4253376 ], 1.9165514583641678, False]","[[ 0.02412413  0.9403988  -0.03922202 -1.4253376 ], 1, [ 0.0429321   1.135983   -0.06772877 -1.7300165 ], 1.8026769450661266, False]","[[ 0.0429321   1.135983   -0.06772877 -1.7300165 ], 1, [ 0.06565176  1.3318101  -0.1023291  -2.0429807 ], 1.6587305911000179, False]","[[ 0.06565176  1.3318101  -0.1023291  -2.0429807 ], 1, [ 0.09228797  1.5278238  -0.14318871 -2.3654954 ], 1.4840596486298319, False]","[[ 0.09228797  1.5278238  -0.14318871 -2.3654954 ], 1, [ 0.12284444  1.7239002  -0.19049862 -2.6985538 ], 1.2778709276740066, False]","[[ 0.12284444  1.7239002  -0.19049862 -2.6985538 ], 1, [ 0.15732245  1.9198294  -0.2444697  -3.0427995 ], 1.039250903478447, True]",
5,"[[-0.00287449 -0.01707776  0.03580032  0.03233895], 1, [-0.00321604  0.17751299  0.0364471  -0.24883711], 1.8278683633957415, False]","[[-0.00321604  0.17751299  0.0364471  -0.24883711], 1, [ 3.3421526e-04  3.7209600e-01  3.1470355e-02 -5.2980471e-01], 1.82463791381981, False]","[[ 3.3421526e-04  3.7209600e-01  3.1470355e-02 -5.2980471e-01], 1, [ 0.00777614  0.56676143  0.02087426 -0.8124075 ], 1.8496008685552612, False]","[[ 0.00777614  0.56676143  0.02087426 -0.8124075 ], 1, [ 0.01911136  0.7615913   0.00462611 -1.0984521 ], 1.8970926938626667, False]","[[ 0.01911136  0.7615913   0.00462611 -1.0984521 ], 1, [ 0.03434319  0.95665205 -0.01734293 -1.38968   ], 1.9699488828428402, False]","[[ 0.03434319  0.95665205 -0.01734293 -1.38968   ], 1, [ 0.05347623  1.1519856  -0.04513653 -1.687735  ], 1.902883934136351, False]","[[ 0.05347623  1.1519856  -0.04513653 -1.687735  ], 1, [ 0.07651594  1.3475995  -0.07889123 -1.9941225 ], 1.7622071627706708, False]","[[ 0.07651594  1.3475995  -0.07889123 -1.9941225 ], 1, [ 0.10346793  1.5434535  -0.11877368 -2.3101597 ], 1.5914404680680592, False]","[[ 0.10346793  1.5434535  -0.11877368 -2.3101597 ], 1, [ 0.13433701  1.7394445  -0.16497688 -2.6369123 ], 1.3897857938183438, False]","[[ 0.13433701  1.7394445  -0.16497688 -2.6369123 ], 1, [ 0.1691259   1.9353889  -0.21771513 -2.9751217 ], 1.1563196684485744, True]",
6,"[[-0.01357533 -0.00851667 -0.00780029  0.03405884], 1, [-0.01374566  0.18671627 -0.00711911 -0.2610749 ], 1.9570999915213818, False]","[[-0.01374566  0.18671627 -0.00711911 -0.2610749 ], 1, [-0.01001134  0.3819391  -0.01234061 -0.55599475], 1.9602813988660726, False]","[[-0.01001134  0.3819391  -0.01234061 -0.55599475], 1, [-0.00237256  0.5772321  -0.0234605  -0.85254   ], 1.9369065501799871, False]","[[-0.00237256  0.5772321  -0.0234605  -0.85254   ], 1, [ 0.00917209  0.7726659  -0.0405113  -1.1525068 ], 1.8869957899572753, False]","[[ 0.00917209  0.7726659  -0.0405113  -1.1525068 ], 1, [ 0.0246254   0.96829224 -0.06356144 -1.4576126 ], 1.8027510756013507, False]","[[ 0.0246254   0.96829224 -0.06356144 -1.4576126 ], 1, [ 0.04399125  1.1641338  -0.09271369 -1.7694563 ], 1.6862558964191439, False]","[[ 0.04399125  1.1641338  -0.09271369 -1.7694563 ], 1, [ 0.06727392  1.360172   -0.12810281 -2.0894694 ], 1.538995045040881, False]","[[ 0.06727392  1.360172   -0.12810281 -2.0894694 ], 1, [ 0.09447736  1.5563327  -0.16989219 -2.4188588 ], 1.3603233398564538, False]","[[ 0.09447736  1.5563327  -0.16989219 -2.4188588 ], 1, [ 0.12560402  1.7524692  -0.21826936 -2.758536  ], 1.1494589681666603, True]",,
7,"[[-0.04421881 -0.03391929 -0.03232354  0.0214688 ], 1, [-0.0448972   0.16165094 -0.03189416 -0.28123477], 1.8272419634130348, False]","[[-0.0448972   0.16165094 -0.03189416 -0.28123477], 1, [-0.04166418  0.357213   -0.03751886 -0.58380395], 1.8290094263230876, False]","[[-0.04166418  0.357213   -0.03751886 -0.58380395], 1, [-0.03451992  0.5528399  -0.04919494 -0.88806576], 1.8035005696050135, False]","[[-0.03451992  0.5528399  -0.04919494 -0.88806576], 1, [-0.02346312  0.74859375 -0.06695625 -1.1957988 ], 1.7507281671404193, False]","[[-0.02346312  0.74859375 -0.06695625 -1.1957988 ], 1, [-0.00849125  0.9445156  -0.09087223 -1.5086935 ], 1.670531146083841, False]","[[-0.00849125  0.9445156  -0.09087223 -1.5086935 ], 1, [ 0.01039907  1.1406139  -0.1210461  -1.828307  ], 1.562579051846546, False]","[[ 0.01039907  1.1406139  -0.1210461  -1.828307  ], 1, [ 0.03321134  1.3368518  -0.15761223 -2.1560106 ], 1.4177145198457959, False]","[[ 0.03321134  1.3368518  -0.15761223 -2.1560106 ], 1, [ 0.05994838  1.5331312  -0.20073244 -2.4929268 ], 1.2336189547446554, False]","[[ 0.05994838  1.5331312  -0.20073244 -2.4929268 ], 1, [ 0.090611    1.7292758  -0.25059098 -2.839856  ], 1.0165947071176669, True]",,
8,"[[-0.01757011 -0.00976111  0.00478785  0.01262373], 1, [-0.01776533  0.18529186  0.00504032 -0.27854472], 1.9698188394034608, False]","[[-0.01776533  0.18529186  0.00504032 -0.27854472], 1, [-1.4059491e-02  3.8034153e-01 -5.3057342e-04 -5.6963366e-01], 1.9685320196626686, False]","[[-1.4059491e-02  3.8034153e-01 -5.3057342e-04 -5.6963366e-01], 1, [-0.00645266  0.5754709  -0.01192325 -0.8624837 ], 1.9916085770717782, False]","[[-0.00645266  0.5754709  -0.01192325 -0.8624837 ], 1, [ 0.00505676  0.77075315 -0.02917292 -1.1588916 ], 1.9403820802331389, False]","[[ 0.00505676  0.77075315 -0.02917292 -1.1588916 ], 1, [ 0.02047182  0.96624285 -0.05235075 -1.460577  ], 1.8586025865212066, False]","[[ 0.02047182  0.96624285 -0.05235075 -1.460577  ], 1, [ 0.03979668  1.1619661  -0.0815623  -1.7691438 ], 1.7415136458197347, False]","[[ 0.03979668  1.1619661  -0.0815623  -1.7691438 ], 1, [ 0.06303599  1.3579086  -0.11694517 -2.0860333 ], 1.5939867762337498, False]","[[ 0.06303599  1.3579086  -0.11694517 -2.0860333 ], 1, [ 0.09019417  1.5540018  -0.15866584 -2.4124677 ], 1.4153629465326765, False]","[[ 0.09019417  1.5540018  -0.15866584 -2.4124677 ], 1, [ 0.1212742   1.7501059  -0.20691518 -2.7493813 ], 1.2048455353269016, False]","[[ 0.1212742   1.7501059  -0.20691518 -2.7493813 ], 1, [ 0.15627632  1.9459913  -0.2619028  -3.0973418 ], 0.9615218479418784, True]",
9,"[[-0.00354574 -0.02568229  0.04619119  0.02340635], 1, [-0.00405938  0.16874784  0.04665931 -0.2543524 ], 1.7779759435263784, False]","[[-0.00405938  0.16874784  0.04665931 -0.2543524 ], 1, [-0.00068443  0.3631736   0.04157227 -0.5319608 ], 1.7755267805055812, False]","[[-0.00068443  0.3631736   0.04157227 -0.5319608 ], 1, [ 0.00657905  0.5576869   0.03093305 -0.8112599 ], 1.80122187668854, False]","[[ 0.00657905  0.5576869   0.03093305 -0.8112599 ], 1, [ 0.01773278  0.7523718   0.01470785 -1.0940546 ], 1.8495642945028172, False]","[[ 0.01773278  0.7523718   0.01470785 -1.0940546 ], 1, [ 0.03278022  0.9472969  -0.00717324 -1.3820868 ], 1.9223865187548053, False]","[[ 0.03278022  0.9472969  -0.00717324 -1.3820868 ], 1, [ 0.05172616  1.1425077  -0.03481498 -1.6770042 ], 1.9520918809159877, False]","[[ 0.05172616  1.1425077  -0.03481498 -1.6770042 ], 1, [ 0.07457631  1.3380157  -0.06835506 -1.980322  ], 1.8122181674070674, False]","[[ 0.07457631  1.3380157  -0.06835506 -1.980322  ], 1, [ 0.10133662  1.5337868  -0.1079615  -2.2933736 ], 1.642555161312612, False]","[[ 0.10133662  1.5337868  -0.1079615  -2.2933736 ], 1, [ 0.13201235  1.7297257  -0.15382896 -2.6172497 ], 1.44229822495328, False]","[[ 0.13201235  1.7297257  -0.15382896 -2.6172497 ], 1, [ 0.16660687  1.9256586  -0.20617396 -2.9527261 ], 1.2105156545809543, False]","[[ 0.16660687  1.9256586  -0.20617396 -2.9527261 ], 1, [ 0.20512004  2.121313   -0.26522848 -3.3001788 ], 0.9461723405607562, True]"
