,0
0,19.05604311048282
1,33.32307828170793
2,22.8914014166322
3,15.466142609865573
4,43.72145920004975
5,54.032862484940026
6,25.772619597698696
7,15.207307393544774
8,60.95478390777792
9,20.949611549736616
10,34.32425124678739
11,27.900290892366712
12,27.88801724531571
13,21.993632483394375
14,30.42483920959698
15,18.094122874265405
16,30.69422711261906
17,16.44367956219033
18,34.01411685931724
19,13.490197109349026
20,28.62683869689247
21,41.74333590444992
22,38.186296318294325
23,22.337754650142863
24,31.886664082593544
25,35.05794868877123
26,23.870827139544737
27,17.585741739889265
28,16.712108072486917
29,18.373995662548428
30,20.356752829955894
31,15.70905540885337
32,22.69866535300784
33,15.070016322595748
34,13.742920244375128
35,27.47413927044389
36,17.003788202447797
37,16.73683472876089
38,19.615419219368327
39,17.337467392994213
40,15.989089150229002
41,27.739756771358163
42,27.99037762451353
43,16.285090131710177
44,18.683941740920076
45,18.1439405169432
46,18.254336353040134
47,19.833959478754227
48,34.74089301618287
49,18.096711251885548
50,23.735084123541277
51,22.187352090649956
52,18.447569315041612
53,15.477762299248841
54,12.433179156885519
55,18.303988316165736
56,14.624868105440282
57,24.51522700960792
58,19.899958617255013
59,16.864333634339243
60,17.88578507781306
61,14.058106630578388
62,21.37756683694307
63,23.482667326832377
64,16.95281583104239
65,17.995079628801403
66,14.951856717891731
67,35.909181283544534
68,16.452187470597934
69,12.650303045747943
70,18.702841232973988
71,15.404318661830928
72,14.921746597402425
73,22.02893931442372
74,21.223522419565096
75,16.580021754739327
76,21.625923156218022
77,17.332457031347847
78,12.613630467533156
79,13.988402780754074
80,25.581632752741086
81,17.025946826471763
82,16.59708397266366
83,14.105882534392624
84,18.594531850808956
85,20.214583450913235
86,24.115162502140237
87,19.275671420304135
88,13.472402635707471
89,13.68166614893894
90,18.58635270177795
91,16.439774415878897
92,24.604350743617736
93,16.736293110773698
94,15.202520001836813
95,14.730225870876948
96,13.653928068454274
97,14.08075119618696
98,16.503669978599007
99,14.450193594969026
