,0
0,31.684855803650763
1,32.03758700253189
2,25.426864872776083
3,56.71336416124757
4,18.034640200669507
5,27.976779195260665
6,26.809573351881017
7,30.822581329069923
8,32.23663779346487
9,43.85509623612468
10,15.013549928668375
11,28.90213694765742
12,28.22956674663622
13,13.821101528214815
14,27.35858840248685
15,38.051993586098504
16,28.369790454047607
17,17.90894948703743
18,18.126998110901393
19,28.380447030325584
20,19.580080856353018
21,17.465481442454344
22,16.084447944604797
23,32.303146981836306
24,23.27653039165981
25,22.47082668267878
26,15.672688236755672
27,40.49660430674526
28,22.015173717004526
29,23.083000983346675
30,30.220032898108926
31,40.483295247006396
32,41.78264802895224
33,15.44670131948797
34,15.798127749486259
35,17.73305067409974
36,30.858777061564364
37,22.33424323126843
38,41.62648902835095
39,16.51866627674741
40,14.127322257195583
41,22.670610578560126
42,29.363226075608996
43,21.858001640786902
44,33.33680364232773
45,19.476561700792818
46,35.23809748364354
47,21.407614532334133
48,21.343498066432595
49,24.377123757165833
50,23.703613640782095
51,17.104358368977273
52,16.49495882132002
53,25.406704505039535
54,13.353162000999678
55,22.063234258918826
56,16.643078194399067
57,20.487601603420558
58,20.148767409700113
59,33.319413335620844
60,12.756028108988033
61,23.549265989472186
62,20.77248916111475
63,12.724178036137884
64,16.612113097761398
65,28.631289346403275
66,16.776286769681928
67,14.587185169036037
68,22.41326040183062
69,16.650042115912022
70,18.179543198749286
71,18.17239027915298
72,23.273918478358294
73,16.468093642572057
74,18.823268802742824
75,20.406222175249983
76,17.470216478249643
77,13.956856802442601
78,19.532164781589987
79,12.77748542006049
80,16.996130408998894
81,14.501182879361414
82,18.297861444423848
83,25.65569086843102
84,17.905791995770215
85,19.272163003754166
86,16.939112542312532
87,20.885526502570443
88,13.989310104542762
89,17.02219038788455
90,17.015113621588487
91,23.193775720425283
92,14.789914273730208
93,16.454147279419466
94,25.743906434503202
95,16.818752120609442
96,18.820340473662526
97,14.971240907489777
98,21.7698527600199
99,18.72683958282018
