,0
0,70.31870090576152
1,17.864838905351114
2,35.11136515043741
3,41.26274455144575
4,46.15298893176296
5,24.33992713966754
6,57.55382054429379
7,52.14927421916876
8,48.77759993297561
9,69.0391378282385
10,31.128124533286048
11,34.94446458690716
12,19.902981259459544
13,62.97905843504804
14,16.716781721600487
15,13.960949903821083
16,50.081234895068285
17,29.591963547937137
18,31.986584125300496
19,20.347793931605935
20,36.208339571835836
21,18.432713975033717
22,14.24713728246602
23,27.740413601264
24,16.123802339841387
25,28.150886984174964
26,17.195257461371174
27,37.23193151054172
28,41.065061128507345
29,15.884899650679824
30,31.697459359030066
31,16.903649514219982
32,30.504655267250577
33,14.8474761174929
34,22.58125181338174
35,39.81613002218475
36,26.961555154384843
37,24.656109022021425
38,14.738863866835668
39,17.225998268018976
40,14.014628596331635
41,16.704639733715304
42,15.10670489629846
43,19.18174175701303
44,20.069117481869746
45,18.907791907274007
46,30.292955554386936
47,16.591559513112827
48,15.745411354757566
49,17.9416274222243
50,21.731565637395178
51,18.773637514265946
52,17.71650558580307
53,51.90565357114295
54,22.105568248587907
55,14.076946182282818
56,15.022587652313819
57,48.883291391705384
58,20.906335871321588
59,25.285372531517986
60,17.082046502857203
61,28.792224326952493
62,19.952894673881147
63,18.64212808799173
64,17.689320351374906
65,18.596226789631984
66,18.395515251932345
67,18.023124936494067
68,16.528266847168965
69,17.064314271267133
70,16.861107012672672
71,15.869949642984972
72,15.661635805454466
73,16.805286381475895
74,21.41733834954669
75,12.466224288297429
76,19.72589253065747
77,16.924839778104186
78,20.942511551107074
79,22.378124891336377
80,17.00001139322733
81,23.485156574492567
82,20.62775975805425
83,16.976392219013018
84,16.617452023801498
85,17.00497719287904
86,14.766952847964326
87,15.456586371033438
88,58.529872579390016
89,16.935870794343572
90,18.116268372423477
91,14.52408760164304
92,21.50369974537465
93,12.438699853798475
94,16.57159876108073
95,21.693667593280715
96,14.117671510166229
97,23.3705048916788
98,17.171380519812782
99,36.5167466330892
