,0
0,15.001636384967604
1,16.696641373528088
2,16.750815410901918
3,13.919533695014108
4,14.91529894253815
5,15.466524139961484
6,12.70110952173957
7,14.507065436322819
8,17.049433088321212
9,16.91018057493242
