,0
0,14.310890753543612
1,25.27121158787991
2,47.5321462047439
3,35.75060079101633
4,59.21699275908827
5,27.863710297115098
6,40.47963189024141
7,17.0986766832568
8,19.33102307703193
9,23.631883412677954
10,35.12654822231944
11,21.412238419714896
12,23.081144793244164
13,80.54037030614423
14,111.7071260025695
15,130.81061043725586
16,53.20985170506062
17,38.54311428134591
18,138.93054535199482
19,299.96059167779794
20,246.5861511063374
21,443.27288560949347
22,447.4286228667029
23,1066.25525199269
24,678.0582351085903
25,438.33516643344143
26,785.3641079476358
27,353.9903603220964
28,479.01649483762185
29,585.8627147345369
30,315.39623151374286
31,363.7790011933218
32,484.50692197744803
33,738.421715929306
34,397.3906924695621
35,1277.4361285102834
36,1937.0554188592646
37,1921.2884869496595
38,1966.7243329902192
39,1946.5841164659996
40,1582.3161787886727
41,1007.0802690724374
42,1855.5347670543329
43,1778.5651796063541
44,1764.0096190568277
45,1709.0376726175248
46,1733.2036040606404
47,1764.069891844095
48,996.5125197092284
49,1608.9636197945724
50,1728.5467299151476
51,1659.0014635737982
52,1846.5153980112664
53,1939.4526595944571
54,1854.1843006453457
55,1831.4974598285328
56,1917.694656984346
57,1868.3183862658416
58,1922.421538541178
59,1913.0657946880754
60,1908.1153723909572
61,1054.5701441895699
62,1789.5808176563423
63,1868.8627619141685
64,1599.240365184397
65,526.8630076113841
66,966.3102010586567
67,1845.4952698536022
68,1921.1529045159884
69,1693.2870134468524
70,1813.0629423355224
71,1262.2230767937544
72,1878.7471172276628
73,1902.7437744806825
74,1910.8659378626112
75,1381.7671493073128
76,1698.4770583498935
77,691.4456575127894
78,1700.3508368664427
79,1909.2125604785203
80,1708.0824039480199
81,1715.9995795466898
82,1828.5859117398452
83,1837.711909068541
84,1859.8594821285724
85,1849.186811707519
86,1886.0507521353072
87,1830.9134686905338
88,1256.4521541358451
89,989.6882333089128
90,647.5025237283396
91,935.4127887104678
92,1848.6603060634022
93,1817.3778706475123
94,966.431261235999
95,1760.9620076844817
96,1740.355877323427
97,1676.917610965966
98,1753.0411624319895
99,1921.5537455013157
