,0
0,17.0
1,28.0
2,25.0
3,20.0
4,9.0
5,22.0
6,24.0
7,20.0
8,10.0
9,37.0
10,14.0
11,10.0
12,18.0
13,39.0
14,48.0
15,19.0
16,42.0
17,31.0
18,16.0
19,18.0
20,26.0
21,30.0
22,17.0
23,60.0
24,51.0
25,40.0
26,10.0
27,21.0
28,31.0
29,17.0
30,20.0
31,23.0
32,25.0
33,14.0
34,30.0
35,13.0
36,48.0
37,27.0
38,28.0
39,11.0
40,16.0
41,18.0
42,21.0
43,19.0
44,43.0
45,26.0
46,12.0
47,16.0
48,21.0
49,12.0
50,17.0
51,16.0
52,20.0
53,14.0
54,25.0
55,14.0
56,19.0
57,38.0
58,65.0
59,25.0
60,36.0
61,27.0
62,14.0
63,21.0
64,13.0
65,12.0
66,18.0
67,15.0
68,32.0
69,31.0
70,13.0
71,11.0
72,29.0
73,27.0
74,50.0
75,10.0
76,29.0
77,34.0
78,12.0
79,17.0
80,17.0
81,21.0
82,33.0
83,16.0
84,21.0
85,19.0
86,27.0
87,17.0
88,43.0
89,20.0
90,31.0
91,45.0
92,15.0
93,22.0
94,16.0
95,26.0
96,28.0
97,31.0
98,17.0
99,13.0
