,0
0,15.228097543198201
1,14.116240043177394
2,17.2110839114944
3,16.64273966175681
4,14.757470204476647
5,17.047908152891853
6,16.753047883277837
7,13.804305241920174
8,12.154473736681277
9,14.032615556887556
