,0
0,32.53793191298464
1,22.06386103964592
2,22.97306579256008
3,40.24353673290469
4,50.95889717189312
5,36.85217894080657
6,26.21902711034126
7,13.500921539632499
8,34.32193121679755
9,70.81228346678103
10,46.15941467926872
11,66.50655938939063
12,43.70882286438062
13,33.57742907371949
14,28.808773650583348
15,17.213380746560674
16,27.687403130667008
17,25.40311779265846
18,29.04060939354783
19,18.180382276934793
20,28.160197989595375
21,22.964782268893504
22,23.65492710026326
23,14.339043856544533
24,18.10756770381193
25,19.315630465853413
26,22.46316005964611
27,17.004386292532356
28,14.991917812960681
29,43.4689213443985
30,16.885281033656238
31,21.480680182166548
32,20.388307269494597
33,25.920652973196532
34,27.02540567225157
35,16.898108692963195
36,21.80935484757699
37,15.1466910504461
38,47.23979611520177
39,20.404339791120254
40,22.73579348937944
41,26.785876286541022
42,18.39253912461119
43,18.646489314551637
44,13.588608555300578
45,16.85681520164395
46,27.406566440292412
47,17.008066778589882
48,15.474322498850007
49,15.75312685765521
50,23.78686957144622
51,17.00309319760348
52,21.878655216793938
53,16.302335155493697
54,25.93698596272052
55,21.811806041551726
56,29.915484777893493
57,15.36275759340377
58,25.35884568610491
59,16.266611504300464
60,25.51682095647524
61,26.735347860808815
62,18.526697832937522
63,20.617946019288937
64,18.159274021904587
65,14.324258146237991
66,20.58171150923307
67,25.804721635413138
68,33.061781825536144
69,21.152411471665456
70,19.838678210095186
71,13.859227218143486
72,16.325492458957214
73,16.93222324761921
74,12.504447861706733
75,12.43993177523378
76,20.046582665867025
77,14.389148931853926
78,15.918588457937108
79,14.285354876895102
80,12.395894013314434
81,14.175503027165643
82,18.719801538620107
83,18.135979611586432
84,13.981476234905536
85,19.862883922234165
86,17.07156026573732
87,17.879828889687126
88,18.081301101276907
89,12.317472662691886
90,21.525605210297307
91,22.6054726567698
92,17.979538031768804
93,18.217348575190513
94,13.771092708401865
95,25.961529101106915
96,33.45656329250468
97,16.661584999703347
98,13.72794615507966
99,18.21358244552182
