,0
0,18.057268034818478
1,14.632664437440912
2,14.773592226291758
3,15.03100961712955
4,18.113173946104677
5,17.132868530708514
6,15.53043587767398
7,16.259119652729705
8,14.111942044466502
9,16.838046790076692
